%YAML 1.1
%TAG !u! tag:unity3d.com,2011:
--- !u!114 &11400000
MonoBehaviour:
  m_ObjectHideFlags: 0
  m_CorrespondingSourceObject: {fileID: 0}
  m_PrefabInstance: {fileID: 0}
  m_PrefabAsset: {fileID: 0}
  m_GameObject: {fileID: 0}
  m_Enabled: 1
  m_EditorHideFlags: 0
  m_Script: {fileID: 11500000, guid: ace94f3ca5a82a3469a5a0dad8159b7f, type: 3}
  m_Name: Girl
  m_EditorClassIdentifier: 
  id: c71298e5-2977-4e55-a827-6597b06db919
  itemType: 0
  cost: 10
  character: {fileID: 11400000, guid: 715538ea185de4606b1eb2ad87e688dc, type: 2}
  weapon: {fileID: 0}
  mapName: 
  cosmetic: {fileID: 0}
  itemPreview: {fileID: 21300000, guid: 76081c15fad2a58429bb0bf0b9d0e254, type: 3}
