%YAML 1.1
%TAG !u! tag:unity3d.com,2011:
--- !u!114 &11400000
MonoBehaviour:
  m_ObjectHideFlags: 0
  m_CorrespondingSourceObject: {fileID: 0}
  m_PrefabInstance: {fileID: 0}
  m_PrefabAsset: {fileID: 0}
  m_GameObject: {fileID: 0}
  m_Enabled: 1
  m_EditorHideFlags: 0
  m_Script: {fileID: 11500000, guid: ace94f3ca5a82a3469a5a0dad8159b7f, type: 3}
  m_Name: Tough
  m_EditorClassIdentifier: 
  id: a8a78b26-5317-4a64-a0ce-bcd28ae560ad
  itemType: 0
  cost: 42
  character: {fileID: 11400000, guid: 268648583183041469fdcd7314ecd99c, type: 2}
  weapon: {fileID: 114469809127564400, guid: 066bf578910ef744e8e4f95d30b8202d, type: 3}
  mapName: Tough
  cosmetic: {fileID: 0}
  itemPreview: {fileID: 21300000, guid: 385a369a2369099469a12591aa8926d8, type: 3}
