%YAML 1.1
%TAG !u! tag:unity3d.com,2011:
--- !u!114 &11400000
MonoBehaviour:
  m_ObjectHideFlags: 0
  m_CorrespondingSourceObject: {fileID: 0}
  m_PrefabInstance: {fileID: 0}
  m_PrefabAsset: {fileID: 0}
  m_GameObject: {fileID: 0}
  m_Enabled: 1
  m_EditorHideFlags: 0
  m_Script: {fileID: 11500000, guid: f82bcc838d2a4e9418e5b2cfd38a6e06, type: 3}
  m_Name: Tough
  m_EditorClassIdentifier: 
  icon: {fileID: 21300000, guid: 385a369a2369099469a12591aa8926d8, type: 3}
  maxHealth: 150
  moveSpeed: 40
  jumpForce: 12
  startingWeapon: {fileID: 114337866411543248, guid: 26a7c91c2de0e0c48b21b7a2727102e4,
    type: 3}
  grenades: 4
  footstepSFX:
  - {fileID: 8300000, guid: 2f2ae353f829db849a92c517458af669, type: 3}
  - {fileID: 8300000, guid: 53e9511159d4c414f8ad73d3d2797b4b, type: 3}
  - {fileID: 8300000, guid: 30e160f3c483eb84c99e3b2543eb9695, type: 3}
  - {fileID: 8300000, guid: 23cf070d00458724da532a1e4a7f410f, type: 3}
  jumpSFX: []
  landingsSFX:
  - {fileID: 8300000, guid: d47bc24bc1380da44930e5ac9372b334, type: 3}
  - {fileID: 8300000, guid: 0efa4cf4ddd408a44882528434c97001, type: 3}
  colliderOffset: {x: 0, y: 0}
  colliderSize: {x: 2, y: 2}
