%YAML 1.1
%TAG !u! tag:unity3d.com,2011:
--- !u!114 &11400000
MonoBehaviour:
  m_ObjectHideFlags: 0
  m_CorrespondingSourceObject: {fileID: 0}
  m_PrefabInstance: {fileID: 0}
  m_PrefabAsset: {fileID: 0}
  m_GameObject: {fileID: 0}
  m_Enabled: 1
  m_EditorHideFlags: 0
  m_Script: {fileID: 11500000, guid: ace94f3ca5a82a3469a5a0dad8159b7f, type: 3}
  m_Name: headset 1
  m_EditorClassIdentifier: 
  id: 4039173f-4a49-4ec4-a5e3-de4478adc782
  itemType: 3
  cost: 5
  character: {fileID: 0}
  weapon: {fileID: 0}
  mapName: 
  cosmetic: {fileID: 11400000, guid: f292eed57daee4436ab9590503e789c1, type: 2}
  itemPreview: {fileID: 21300000, guid: 9405340d197947e43b74134136cdd54d, type: 3}
