%YAML 1.1
%TAG !u! tag:unity3d.com,2011:
--- !u!114 &11400000
MonoBehaviour:
  m_ObjectHideFlags: 0
  m_CorrespondingSourceObject: {fileID: 0}
  m_PrefabInstance: {fileID: 0}
  m_PrefabAsset: {fileID: 0}
  m_GameObject: {fileID: 0}
  m_Enabled: 1
  m_EditorHideFlags: 0
  m_Script: {fileID: 11500000, guid: ace94f3ca5a82a3469a5a0dad8159b7f, type: 3}
  m_Name: shade 3
  m_EditorClassIdentifier: 
  id: d0288b4b-99d5-4587-821f-4126e6f192d9
  itemType: 3
  cost: 5
  character: {fileID: 0}
  weapon: {fileID: 0}
  mapName: 
  cosmetic: {fileID: 11400000, guid: b714258f1b4566541ac2d8a8b9f3a3cb, type: 2}
  itemPreview: {fileID: 21300000, guid: 36fbadc1c081c9a44aeaf1aa8e70512b, type: 3}
