%YAML 1.1
%TAG !u! tag:unity3d.com,2011:
--- !u!29 &1
OcclusionCullingSettings:
  m_ObjectHideFlags: 0
  serializedVersion: 2
  m_OcclusionBakeSettings:
    smallestOccluder: 5
    smallestHole: 0.25
    backfaceThreshold: 100
  m_SceneGUID: 00000000000000000000000000000000
  m_OcclusionCullingData: {fileID: 0}
--- !u!104 &2
RenderSettings:
  m_ObjectHideFlags: 0
  serializedVersion: 9
  m_Fog: 0
  m_FogColor: {r: 0.5, g: 0.5, b: 0.5, a: 1}
  m_FogMode: 3
  m_FogDensity: 0.01
  m_LinearFogStart: 0
  m_LinearFogEnd: 300
  m_AmbientSkyColor: {r: 0.2, g: 0.2, b: 0.2, a: 1}
  m_AmbientEquatorColor: {r: 0.2, g: 0.2, b: 0.2, a: 1}
  m_AmbientGroundColor: {r: 0.2, g: 0.2, b: 0.2, a: 1}
  m_AmbientIntensity: 1
  m_AmbientMode: 3
  m_SubtractiveShadowColor: {r: 0.42, g: 0.478, b: 0.627, a: 1}
  m_SkyboxMaterial: {fileID: 0}
  m_HaloStrength: 0.5
  m_FlareStrength: 1
  m_FlareFadeSpeed: 3
  m_HaloTexture: {fileID: 0}
  m_SpotCookie: {fileID: 10001, guid: 0000000000000000e000000000000000, type: 0}
  m_DefaultReflectionMode: 0
  m_DefaultReflectionResolution: 128
  m_ReflectionBounces: 1
  m_ReflectionIntensity: 1
  m_CustomReflection: {fileID: 0}
  m_Sun: {fileID: 0}
  m_IndirectSpecularColor: {r: 0, g: 0, b: 0, a: 1}
  m_UseRadianceAmbientProbe: 0
--- !u!157 &4
LightmapSettings:
  m_ObjectHideFlags: 0
  serializedVersion: 12
  m_GIWorkflowMode: 1
  m_GISettings:
    serializedVersion: 2
    m_BounceScale: 1
    m_IndirectOutputScale: 1
    m_AlbedoBoost: 1
    m_EnvironmentLightingMode: 0
    m_EnableBakedLightmaps: 1
    m_EnableRealtimeLightmaps: 0
  m_LightmapEditorSettings:
    serializedVersion: 12
    m_Resolution: 1
    m_BakeResolution: 50
    m_AtlasSize: 1024
    m_AO: 1
    m_AOMaxDistance: 1
    m_CompAOExponent: 1
    m_CompAOExponentDirect: 0
    m_ExtractAmbientOcclusion: 0
    m_Padding: 2
    m_LightmapParameters: {fileID: 0}
    m_LightmapsBakeMode: 1
    m_TextureCompression: 0
    m_FinalGather: 0
    m_FinalGatherFiltering: 1
    m_FinalGatherRayCount: 256
    m_ReflectionCompression: 2
    m_MixedBakeMode: 1
    m_BakeBackend: 0
    m_PVRSampling: 1
    m_PVRDirectSampleCount: 32
    m_PVRSampleCount: 512
    m_PVRBounces: 2
    m_PVREnvironmentSampleCount: 512
    m_PVREnvironmentReferencePointCount: 2048
    m_PVRFilteringMode: 0
    m_PVRDenoiserTypeDirect: 0
    m_PVRDenoiserTypeIndirect: 0
    m_PVRDenoiserTypeAO: 0
    m_PVRFilterTypeDirect: 0
    m_PVRFilterTypeIndirect: 0
    m_PVRFilterTypeAO: 0
    m_PVREnvironmentMIS: 0
    m_PVRCulling: 1
    m_PVRFilteringGaussRadiusDirect: 1
    m_PVRFilteringGaussRadiusIndirect: 5
    m_PVRFilteringGaussRadiusAO: 2
    m_PVRFilteringAtrousPositionSigmaDirect: 0.5
    m_PVRFilteringAtrousPositionSigmaIndirect: 2
    m_PVRFilteringAtrousPositionSigmaAO: 1
    m_ExportTrainingData: 0
    m_TrainingDataDestination: TrainingData
    m_LightProbeSampleCountMultiplier: 4
  m_LightingDataAsset: {fileID: 0}
  m_LightingSettings: {fileID: 4890085278179872738, guid: a77abece576f3c645b24de2b454bb80a,
    type: 2}
--- !u!196 &5
NavMeshSettings:
  serializedVersion: 2
  m_ObjectHideFlags: 0
  m_BuildSettings:
    serializedVersion: 2
    agentTypeID: 0
    agentRadius: 0.5
    agentHeight: 2
    agentSlope: 45
    agentClimb: 0.4
    ledgeDropHeight: 0
    maxJumpAcrossDistance: 0
    minRegionArea: 2
    manualCellSize: 0
    cellSize: 0.16666666
    manualTileSize: 0
    tileSize: 256
    accuratePlacement: 0
    maxJobWorkers: 0
    preserveTilesOutsideBounds: 0
    debug:
      m_Flags: 0
  m_NavMeshData: {fileID: 0}
--- !u!1001 &21458750
PrefabInstance:
  m_ObjectHideFlags: 0
  serializedVersion: 2
  m_Modification:
    m_TransformParent: {fileID: 0}
    m_Modifications:
    - target: {fileID: 400000, guid: 0d9158a373e64481db63423af851bdc9, type: 3}
      propertyPath: m_LocalScale.x
      value: .100000001
      objectReference: {fileID: 0}
    - target: {fileID: 400000, guid: 0d9158a373e64481db63423af851bdc9, type: 3}
      propertyPath: m_LocalScale.y
      value: 16360.1113
      objectReference: {fileID: 0}
    - target: {fileID: 400000, guid: 0d9158a373e64481db63423af851bdc9, type: 3}
      propertyPath: m_LocalScale.z
      value: .100000001
      objectReference: {fileID: 0}
    - target: {fileID: 400000, guid: 0d9158a373e64481db63423af851bdc9, type: 3}
      propertyPath: m_LocalPosition.x
      value: -9.71890358e-07
      objectReference: {fileID: 0}
    - target: {fileID: 400000, guid: 0d9158a373e64481db63423af851bdc9, type: 3}
      propertyPath: m_LocalPosition.y
      value: 9.30046844
      objectReference: {fileID: 0}
    - target: {fileID: 400000, guid: 0d9158a373e64481db63423af851bdc9, type: 3}
      propertyPath: m_LocalPosition.z
      value: 2.15399183e-07
      objectReference: {fileID: 0}
    - target: {fileID: 400000, guid: 0d9158a373e64481db63423af851bdc9, type: 3}
      propertyPath: m_LocalRotation.w
      value: .707106709
      objectReference: {fileID: 0}
    - target: {fileID: 400000, guid: 0d9158a373e64481db63423af851bdc9, type: 3}
      propertyPath: m_LocalRotation.x
      value: 0
      objectReference: {fileID: 0}
    - target: {fileID: 400000, guid: 0d9158a373e64481db63423af851bdc9, type: 3}
      propertyPath: m_LocalRotation.y
      value: 0
      objectReference: {fileID: 0}
    - target: {fileID: 400000, guid: 0d9158a373e64481db63423af851bdc9, type: 3}
      propertyPath: m_LocalRotation.z
      value: .707106829
      objectReference: {fileID: 0}
    - target: {fileID: 2300000, guid: 0d9158a373e64481db63423af851bdc9, type: 3}
      propertyPath: m_Materials.Array.data[0]
      value: 
      objectReference: {fileID: 2100000, guid: a8a5e544bfa0d416892e87b12e93911b, type: 2}
    m_RemovedComponents: []
  m_SourcePrefab: {fileID: 100100000, guid: 0d9158a373e64481db63423af851bdc9, type: 3}
--- !u!1001 &172883748
PrefabInstance:
  m_ObjectHideFlags: 0
  serializedVersion: 2
  m_Modification:
    m_TransformParent: {fileID: 0}
    m_Modifications:
    - target: {fileID: 400040, guid: 6a9d822b319924ae7a120c7f2ba0b067, type: 3}
      propertyPath: m_LocalPosition.x
      value: .0176568031
      objectReference: {fileID: 0}
    - target: {fileID: 400040, guid: 6a9d822b319924ae7a120c7f2ba0b067, type: 3}
      propertyPath: m_LocalPosition.y
      value: 20.4698124
      objectReference: {fileID: 0}
    - target: {fileID: 400040, guid: 6a9d822b319924ae7a120c7f2ba0b067, type: 3}
      propertyPath: m_LocalPosition.z
      value: 507.130829
      objectReference: {fileID: 0}
    - target: {fileID: 400040, guid: 6a9d822b319924ae7a120c7f2ba0b067, type: 3}
      propertyPath: m_LocalRotation.w
      value: .707106709
      objectReference: {fileID: 0}
    - target: {fileID: 400040, guid: 6a9d822b319924ae7a120c7f2ba0b067, type: 3}
      propertyPath: m_LocalRotation.x
      value: 0
      objectReference: {fileID: 0}
    - target: {fileID: 400040, guid: 6a9d822b319924ae7a120c7f2ba0b067, type: 3}
      propertyPath: m_LocalRotation.y
      value: .707106829
      objectReference: {fileID: 0}
    - target: {fileID: 400040, guid: 6a9d822b319924ae7a120c7f2ba0b067, type: 3}
      propertyPath: m_LocalRotation.z
      value: 0
      objectReference: {fileID: 0}
    m_RemovedComponents: []
  m_SourcePrefab: {fileID: 100100000, guid: 6a9d822b319924ae7a120c7f2ba0b067, type: 3}
--- !u!4 &307504767 stripped
Transform:
  m_CorrespondingSourceObject: {fileID: 400002, guid: 0b4ce6f9ebfb948a58b5b05397daaaea,
    type: 3}
  m_PrefabInstance: {fileID: 685688219}
  m_PrefabAsset: {fileID: 0}
--- !u!1001 &685688219
PrefabInstance:
  m_ObjectHideFlags: 0
  serializedVersion: 2
  m_Modification:
    m_TransformParent: {fileID: 0}
    m_Modifications:
    - target: {fileID: 400000, guid: 0b4ce6f9ebfb948a58b5b05397daaaea, type: 3}
      propertyPath: m_LocalPosition.x
      value: -4.45553255
      objectReference: {fileID: 0}
    - target: {fileID: 400000, guid: 0b4ce6f9ebfb948a58b5b05397daaaea, type: 3}
      propertyPath: m_LocalPosition.y
      value: .325025737
      objectReference: {fileID: 0}
    - target: {fileID: 400000, guid: 0b4ce6f9ebfb948a58b5b05397daaaea, type: 3}
      propertyPath: m_LocalPosition.z
      value: 1.46029758
      objectReference: {fileID: 0}
    - target: {fileID: 400002, guid: 0b4ce6f9ebfb948a58b5b05397daaaea, type: 3}
      propertyPath: m_LocalScale.y
      value: 1.14663446
      objectReference: {fileID: 0}
    - target: {fileID: 400002, guid: 0b4ce6f9ebfb948a58b5b05397daaaea, type: 3}
      propertyPath: m_LocalScale.z
      value: 2.29326892
      objectReference: {fileID: 0}
    - target: {fileID: 400002, guid: 0b4ce6f9ebfb948a58b5b05397daaaea, type: 3}
      propertyPath: m_LocalPosition.x
      value: -2.00970554
      objectReference: {fileID: 0}
    - target: {fileID: 400002, guid: 0b4ce6f9ebfb948a58b5b05397daaaea, type: 3}
      propertyPath: m_LocalPosition.y
      value: 7.04259586
      objectReference: {fileID: 0}
    - target: {fileID: 400002, guid: 0b4ce6f9ebfb948a58b5b05397daaaea, type: 3}
      propertyPath: m_LocalPosition.z
      value: 1.75412667
      objectReference: {fileID: 0}
    - target: {fileID: 400002, guid: 0b4ce6f9ebfb948a58b5b05397daaaea, type: 3}
      propertyPath: m_LocalRotation.w
      value: .664519846
      objectReference: {fileID: 0}
    - target: {fileID: 400002, guid: 0b4ce6f9ebfb948a58b5b05397daaaea, type: 3}
      propertyPath: m_LocalRotation.x
      value: -.747270703
      objectReference: {fileID: 0}
    - target: {fileID: 400002, guid: 0b4ce6f9ebfb948a58b5b05397daaaea, type: 3}
      propertyPath: m_LocalRotation.y
      value: 0
      objectReference: {fileID: 0}
    - target: {fileID: 400002, guid: 0b4ce6f9ebfb948a58b5b05397daaaea, type: 3}
      propertyPath: m_LocalRotation.z
      value: 0
      objectReference: {fileID: 0}
    - target: {fileID: 400004, guid: 0b4ce6f9ebfb948a58b5b05397daaaea, type: 3}
      propertyPath: m_LocalPosition.x
      value: 4.61695385
      objectReference: {fileID: 0}
    - target: {fileID: 400004, guid: 0b4ce6f9ebfb948a58b5b05397daaaea, type: 3}
      propertyPath: m_LocalPosition.y
      value: .351907492
      objectReference: {fileID: 0}
    - target: {fileID: 400004, guid: 0b4ce6f9ebfb948a58b5b05397daaaea, type: 3}
      propertyPath: m_LocalPosition.z
      value: -4.59050417
      objectReference: {fileID: 0}
    - target: {fileID: 400006, guid: 0b4ce6f9ebfb948a58b5b05397daaaea, type: 3}
      propertyPath: m_LocalPosition.x
      value: -4.80733156
      objectReference: {fileID: 0}
    - target: {fileID: 400006, guid: 0b4ce6f9ebfb948a58b5b05397daaaea, type: 3}
      propertyPath: m_LocalPosition.y
      value: .351907641
      objectReference: {fileID: 0}
    - target: {fileID: 400006, guid: 0b4ce6f9ebfb948a58b5b05397daaaea, type: 3}
      propertyPath: m_LocalPosition.z
      value: -4.63402319
      objectReference: {fileID: 0}
    - target: {fileID: 400008, guid: 0b4ce6f9ebfb948a58b5b05397daaaea, type: 3}
      propertyPath: m_LocalPosition.x
      value: 5.33777189
      objectReference: {fileID: 0}
    - target: {fileID: 400008, guid: 0b4ce6f9ebfb948a58b5b05397daaaea, type: 3}
      propertyPath: m_LocalPosition.y
      value: .379961967
      objectReference: {fileID: 0}
    - target: {fileID: 400008, guid: 0b4ce6f9ebfb948a58b5b05397daaaea, type: 3}
      propertyPath: m_LocalPosition.z
      value: 1.45426571
      objectReference: {fileID: 0}
    m_RemovedComponents: []
  m_SourcePrefab: {fileID: 100100000, guid: 0b4ce6f9ebfb948a58b5b05397daaaea, type: 3}
--- !u!1 &845694183
GameObject:
  m_ObjectHideFlags: 0
  m_CorrespondingSourceObject: {fileID: 0}
  m_PrefabInstance: {fileID: 0}
  m_PrefabAsset: {fileID: 0}
  serializedVersion: 6
  m_Component:
  - component: {fileID: 845694184}
  - component: {fileID: 845694185}
  m_Layer: 0
  m_Name: Directional light
  m_TagString: Untagged
  m_Icon: {fileID: 0}
  m_NavMeshLayer: 0
  m_StaticEditorFlags: 0
  m_IsActive: 1
--- !u!4 &845694184
Transform:
  m_ObjectHideFlags: 0
  m_CorrespondingSourceObject: {fileID: 0}
  m_PrefabInstance: {fileID: 0}
  m_PrefabAsset: {fileID: 0}
  m_GameObject: {fileID: 845694183}
  m_LocalRotation: {x: 0, y: 0.7071068, z: 0, w: 0.7071067}
  m_LocalPosition: {x: -0, y: 0, z: 0}
  m_LocalScale: {x: 1, y: 1, z: 1}
  m_Children: []
  m_Father: {fileID: 1589894913}
  m_RootOrder: 1
  m_LocalEulerAnglesHint: {x: 0, y: 0, z: 0}
--- !u!108 &845694185
Light:
  m_ObjectHideFlags: 0
  m_CorrespondingSourceObject: {fileID: 0}
  m_PrefabInstance: {fileID: 0}
  m_PrefabAsset: {fileID: 0}
  m_GameObject: {fileID: 845694183}
  m_Enabled: 1
  serializedVersion: 10
  m_Type: 1
  m_Shape: 0
  m_Color: {r: 0.49357226, g: 0.0066273054, b: 0.8880597, a: 1}
  m_Intensity: 0.26
  m_Range: 10
  m_SpotAngle: 30
  m_InnerSpotAngle: 21.80208
  m_CookieSize: 10
  m_Shadows:
    m_Type: 0
    m_Resolution: -1
    m_CustomResolution: -1
    m_Strength: 1
    m_Bias: 0.05
    m_NormalBias: 0.4
    m_NearPlane: 0.2
    m_CullingMatrixOverride:
      e00: 1
      e01: 0
      e02: 0
      e03: 0
      e10: 0
      e11: 1
      e12: 0
      e13: 0
      e20: 0
      e21: 0
      e22: 1
      e23: 0
      e30: 0
      e31: 0
      e32: 0
      e33: 1
    m_UseCullingMatrixOverride: 0
  m_Cookie: {fileID: 0}
  m_DrawHalo: 0
  m_Flare: {fileID: 0}
  m_RenderMode: 0
  m_CullingMask:
    serializedVersion: 2
    m_Bits: 4294967295
  m_RenderingLayerMask: 1
  m_Lightmapping: 1
  m_LightShadowCasterMode: 0
  m_AreaSize: {x: 1, y: 1}
  m_BounceIntensity: 1
  m_ColorTemperature: 6570
  m_UseColorTemperature: 0
  m_BoundingSphereOverride: {x: 0, y: 0, z: 0, w: 0}
  m_UseBoundingSphereOverride: 0
  m_UseViewFrustumForShadowCasterCull: 1
  m_ShadowRadius: 0
  m_ShadowAngle: 0
--- !u!1 &888025164
GameObject:
  m_ObjectHideFlags: 0
  m_CorrespondingSourceObject: {fileID: 0}
  m_PrefabInstance: {fileID: 0}
  m_PrefabAsset: {fileID: 0}
  serializedVersion: 6
  m_Component:
  - component: {fileID: 888025165}
  - component: {fileID: 888025166}
  m_Layer: 0
  m_Name: Directional light
  m_TagString: Untagged
  m_Icon: {fileID: 0}
  m_NavMeshLayer: 0
  m_StaticEditorFlags: 0
  m_IsActive: 1
--- !u!4 &888025165
Transform:
  m_ObjectHideFlags: 0
  m_CorrespondingSourceObject: {fileID: 0}
  m_PrefabInstance: {fileID: 0}
  m_PrefabAsset: {fileID: 0}
  m_GameObject: {fileID: 888025164}
  m_LocalRotation: {x: 0.39069661, y: 0, z: 0, w: 0.92051953}
  m_LocalPosition: {x: 0, y: 0, z: 0}
  m_LocalScale: {x: 1, y: 1, z: 1}
  m_Children: []
  m_Father: {fileID: 1589894913}
  m_RootOrder: 4
  m_LocalEulerAnglesHint: {x: 0, y: 0, z: 0}
--- !u!108 &888025166
Light:
  m_ObjectHideFlags: 0
  m_CorrespondingSourceObject: {fileID: 0}
  m_PrefabInstance: {fileID: 0}
  m_PrefabAsset: {fileID: 0}
  m_GameObject: {fileID: 888025164}
  m_Enabled: 1
  serializedVersion: 10
  m_Type: 1
  m_Shape: 0
  m_Color: {r: 0.9924851, g: 1, b: 0.73134327, a: 1}
  m_Intensity: 0.28
  m_Range: 10
  m_SpotAngle: 30
  m_InnerSpotAngle: 21.80208
  m_CookieSize: 10
  m_Shadows:
    m_Type: 0
    m_Resolution: -1
    m_CustomResolution: -1
    m_Strength: 1
    m_Bias: 0.05
    m_NormalBias: 0.4
    m_NearPlane: 0.2
    m_CullingMatrixOverride:
      e00: 1
      e01: 0
      e02: 0
      e03: 0
      e10: 0
      e11: 1
      e12: 0
      e13: 0
      e20: 0
      e21: 0
      e22: 1
      e23: 0
      e30: 0
      e31: 0
      e32: 0
      e33: 1
    m_UseCullingMatrixOverride: 0
  m_Cookie: {fileID: 0}
  m_DrawHalo: 0
  m_Flare: {fileID: 0}
  m_RenderMode: 0
  m_CullingMask:
    serializedVersion: 2
    m_Bits: 4294967295
  m_RenderingLayerMask: 1
  m_Lightmapping: 1
  m_LightShadowCasterMode: 0
  m_AreaSize: {x: 1, y: 1}
  m_BounceIntensity: 1
  m_ColorTemperature: 6570
  m_UseColorTemperature: 0
  m_BoundingSphereOverride: {x: 0, y: 0, z: 0, w: 0}
  m_UseBoundingSphereOverride: 0
  m_UseViewFrustumForShadowCasterCull: 1
  m_ShadowRadius: 0
  m_ShadowAngle: 0
--- !u!1001 &1168755422
PrefabInstance:
  m_ObjectHideFlags: 0
  serializedVersion: 2
  m_Modification:
    m_TransformParent: {fileID: 307504767}
    m_Modifications:
    - target: {fileID: 400002, guid: c0f35ff1d23074af5bcd82d9caa31ebe, type: 3}
      propertyPath: m_LocalScale.x
      value: .820491791
      objectReference: {fileID: 0}
    - target: {fileID: 400002, guid: c0f35ff1d23074af5bcd82d9caa31ebe, type: 3}
      propertyPath: m_LocalScale.y
      value: .82601428
      objectReference: {fileID: 0}
    - target: {fileID: 400002, guid: c0f35ff1d23074af5bcd82d9caa31ebe, type: 3}
      propertyPath: m_LocalScale.z
      value: .826014876
      objectReference: {fileID: 0}
    - target: {fileID: 400002, guid: c0f35ff1d23074af5bcd82d9caa31ebe, type: 3}
      propertyPath: m_LocalPosition.x
      value: -5.70579386
      objectReference: {fileID: 0}
    - target: {fileID: 400002, guid: c0f35ff1d23074af5bcd82d9caa31ebe, type: 3}
      propertyPath: m_LocalPosition.y
      value: .352436662
      objectReference: {fileID: 0}
    - target: {fileID: 400002, guid: c0f35ff1d23074af5bcd82d9caa31ebe, type: 3}
      propertyPath: m_LocalPosition.z
      value: -4.61674595
      objectReference: {fileID: 0}
    - target: {fileID: 400002, guid: c0f35ff1d23074af5bcd82d9caa31ebe, type: 3}
      propertyPath: m_LocalRotation.w
      value: 0
      objectReference: {fileID: 0}
    - target: {fileID: 400002, guid: c0f35ff1d23074af5bcd82d9caa31ebe, type: 3}
      propertyPath: m_LocalRotation.x
      value: 0
      objectReference: {fileID: 0}
    - target: {fileID: 400002, guid: c0f35ff1d23074af5bcd82d9caa31ebe, type: 3}
      propertyPath: m_LocalRotation.y
      value: .664520562
      objectReference: {fileID: 0}
    - target: {fileID: 400002, guid: c0f35ff1d23074af5bcd82d9caa31ebe, type: 3}
      propertyPath: m_LocalRotation.z
      value: .747269988
      objectReference: {fileID: 0}
    - target: {fileID: 2300000, guid: c0f35ff1d23074af5bcd82d9caa31ebe, type: 3}
      propertyPath: m_Materials.Array.data[0]
      value: 
      objectReference: {fileID: 2100000, guid: 33b82a22301d648c5afa1a682a259e5d, type: 2}
    m_RemovedComponents:
    - {fileID: 11100000, guid: c0f35ff1d23074af5bcd82d9caa31ebe, type: 3}
  m_SourcePrefab: {fileID: 100100000, guid: c0f35ff1d23074af5bcd82d9caa31ebe, type: 3}
--- !u!1 &1430064998
GameObject:
  m_ObjectHideFlags: 0
  m_CorrespondingSourceObject: {fileID: 0}
  m_PrefabInstance: {fileID: 0}
  m_PrefabAsset: {fileID: 0}
  serializedVersion: 6
  m_Component:
  - component: {fileID: 1430064999}
  - component: {fileID: 1430065000}
  m_Layer: 0
  m_Name: Directional light
  m_TagString: Untagged
  m_Icon: {fileID: 0}
  m_NavMeshLayer: 0
  m_StaticEditorFlags: 0
  m_IsActive: 1
--- !u!4 &1430064999
Transform:
  m_ObjectHideFlags: 0
  m_CorrespondingSourceObject: {fileID: 0}
  m_PrefabInstance: {fileID: 0}
  m_PrefabAsset: {fileID: 0}
  m_GameObject: {fileID: 1430064998}
  m_LocalRotation: {x: 0, y: 1, z: 0, w: -0.00000016292068}
  m_LocalPosition: {x: -0, y: 0, z: 0}
  m_LocalScale: {x: 1, y: 1, z: 1}
  m_Children: []
  m_Father: {fileID: 1589894913}
  m_RootOrder: 2
  m_LocalEulerAnglesHint: {x: 0, y: 0, z: 0}
--- !u!108 &1430065000
Light:
  m_ObjectHideFlags: 0
  m_CorrespondingSourceObject: {fileID: 0}
  m_PrefabInstance: {fileID: 0}
  m_PrefabAsset: {fileID: 0}
  m_GameObject: {fileID: 1430064998}
  m_Enabled: 1
  serializedVersion: 10
  m_Type: 1
  m_Shape: 0
  m_Color: {r: 0.49357226, g: 0.0066273054, b: 0.8880597, a: 1}
  m_Intensity: 0.26
  m_Range: 10
  m_SpotAngle: 30
  m_InnerSpotAngle: 21.80208
  m_CookieSize: 10
  m_Shadows:
    m_Type: 0
    m_Resolution: -1
    m_CustomResolution: -1
    m_Strength: 1
    m_Bias: 0.05
    m_NormalBias: 0.4
    m_NearPlane: 0.2
    m_CullingMatrixOverride:
      e00: 1
      e01: 0
      e02: 0
      e03: 0
      e10: 0
      e11: 1
      e12: 0
      e13: 0
      e20: 0
      e21: 0
      e22: 1
      e23: 0
      e30: 0
      e31: 0
      e32: 0
      e33: 1
    m_UseCullingMatrixOverride: 0
  m_Cookie: {fileID: 0}
  m_DrawHalo: 0
  m_Flare: {fileID: 0}
  m_RenderMode: 0
  m_CullingMask:
    serializedVersion: 2
    m_Bits: 4294967295
  m_RenderingLayerMask: 1
  m_Lightmapping: 1
  m_LightShadowCasterMode: 0
  m_AreaSize: {x: 1, y: 1}
  m_BounceIntensity: 1
  m_ColorTemperature: 6570
  m_UseColorTemperature: 0
  m_BoundingSphereOverride: {x: 0, y: 0, z: 0, w: 0}
  m_UseBoundingSphereOverride: 0
  m_UseViewFrustumForShadowCasterCull: 1
  m_ShadowRadius: 0
  m_ShadowAngle: 0
--- !u!1 &1487996144
GameObject:
  m_ObjectHideFlags: 0
  m_CorrespondingSourceObject: {fileID: 0}
  m_PrefabInstance: {fileID: 0}
  m_PrefabAsset: {fileID: 0}
  serializedVersion: 6
  m_Component:
  - component: {fileID: 1487996145}
  - component: {fileID: 1487996146}
  m_Layer: 0
  m_Name: Point light
  m_TagString: Untagged
  m_Icon: {fileID: 0}
  m_NavMeshLayer: 0
  m_StaticEditorFlags: 0
  m_IsActive: 1
--- !u!4 &1487996145
Transform:
  m_ObjectHideFlags: 0
  m_CorrespondingSourceObject: {fileID: 0}
  m_PrefabInstance: {fileID: 0}
  m_PrefabAsset: {fileID: 0}
  m_GameObject: {fileID: 1487996144}
  m_LocalRotation: {x: 0.46834725, y: -0.16140407, z: 0.10737535, w: 0.8620152}
  m_LocalPosition: {x: -1.1829255, y: 6.791933, z: -8.546488}
  m_LocalScale: {x: 1, y: 1, z: 1}
  m_Children: []
  m_Father: {fileID: 0}
  m_RootOrder: 5
  m_LocalEulerAnglesHint: {x: 0, y: 0, z: 0}
--- !u!108 &1487996146
Light:
  m_ObjectHideFlags: 0
  m_CorrespondingSourceObject: {fileID: 0}
  m_PrefabInstance: {fileID: 0}
  m_PrefabAsset: {fileID: 0}
  m_GameObject: {fileID: 1487996144}
  m_Enabled: 1
  serializedVersion: 10
  m_Type: 2
  m_Shape: 0
  m_Color: {r: 1, g: 0.9361236, b: 0.86567163, a: 1}
  m_Intensity: 1.58
  m_Range: 49.01
  m_SpotAngle: 58
  m_InnerSpotAngle: 43.445633
  m_CookieSize: 10
  m_Shadows:
    m_Type: 0
    m_Resolution: -1
    m_CustomResolution: -1
    m_Strength: 1
    m_Bias: 0.05
    m_NormalBias: 0.4
    m_NearPlane: 0.2
    m_CullingMatrixOverride:
      e00: 1
      e01: 0
      e02: 0
      e03: 0
      e10: 0
      e11: 1
      e12: 0
      e13: 0
      e20: 0
      e21: 0
      e22: 1
      e23: 0
      e30: 0
      e31: 0
      e32: 0
      e33: 1
    m_UseCullingMatrixOverride: 0
  m_Cookie: {fileID: 0}
  m_DrawHalo: 0
  m_Flare: {fileID: 0}
  m_RenderMode: 0
  m_CullingMask:
    serializedVersion: 2
    m_Bits: 4294967295
  m_RenderingLayerMask: 1
  m_Lightmapping: 1
  m_LightShadowCasterMode: 0
  m_AreaSize: {x: 1, y: 1}
  m_BounceIntensity: 1
  m_ColorTemperature: 6570
  m_UseColorTemperature: 0
  m_BoundingSphereOverride: {x: 0, y: 0, z: 0, w: 0}
  m_UseBoundingSphereOverride: 0
  m_UseViewFrustumForShadowCasterCull: 1
  m_ShadowRadius: 0
  m_ShadowAngle: 0
--- !u!1 &1589894912
GameObject:
  m_ObjectHideFlags: 0
  m_CorrespondingSourceObject: {fileID: 0}
  m_PrefabInstance: {fileID: 0}
  m_PrefabAsset: {fileID: 0}
  serializedVersion: 6
  m_Component:
  - component: {fileID: 1589894913}
  - component: {fileID: 1589894914}
  m_Layer: 0
  m_Name: Radial light
  m_TagString: Untagged
  m_Icon: {fileID: 0}
  m_NavMeshLayer: 0
  m_StaticEditorFlags: 0
  m_IsActive: 1
--- !u!4 &1589894913
Transform:
  m_ObjectHideFlags: 0
  m_CorrespondingSourceObject: {fileID: 0}
  m_PrefabInstance: {fileID: 0}
  m_PrefabAsset: {fileID: 0}
  m_GameObject: {fileID: 1589894912}
  m_LocalRotation: {x: 0, y: 0, z: 0, w: 1}
  m_LocalPosition: {x: -0.2720399, y: 4.906624, z: -1.3821645}
  m_LocalScale: {x: 1, y: 1, z: 1}
  m_Children:
  - {fileID: 1681816812}
  - {fileID: 845694184}
  - {fileID: 1430064999}
  - {fileID: 1991876557}
  - {fileID: 888025165}
  m_Father: {fileID: 0}
  m_RootOrder: 6
  m_LocalEulerAnglesHint: {x: 0, y: 0, z: 0}
--- !u!108 &1589894914
Light:
  m_ObjectHideFlags: 0
  m_CorrespondingSourceObject: {fileID: 0}
  m_PrefabInstance: {fileID: 0}
  m_PrefabAsset: {fileID: 0}
  m_GameObject: {fileID: 1589894912}
  m_Enabled: 1
  serializedVersion: 10
  m_Type: 1
  m_Shape: 0
  m_Color: {r: 1, g: 1, b: 1, a: 1}
  m_Intensity: 0.08
  m_Range: 10
  m_SpotAngle: 30
  m_InnerSpotAngle: 21.80208
  m_CookieSize: 10
  m_Shadows:
    m_Type: 0
    m_Resolution: -1
    m_CustomResolution: -1
    m_Strength: 1
    m_Bias: 0.05
    m_NormalBias: 0.4
    m_NearPlane: 0.2
    m_CullingMatrixOverride:
      e00: 1
      e01: 0
      e02: 0
      e03: 0
      e10: 0
      e11: 1
      e12: 0
      e13: 0
      e20: 0
      e21: 0
      e22: 1
      e23: 0
      e30: 0
      e31: 0
      e32: 0
      e33: 1
    m_UseCullingMatrixOverride: 0
  m_Cookie: {fileID: 0}
  m_DrawHalo: 0
  m_Flare: {fileID: 0}
  m_RenderMode: 0
  m_CullingMask:
    serializedVersion: 2
    m_Bits: 4294967295
  m_RenderingLayerMask: 1
  m_Lightmapping: 1
  m_LightShadowCasterMode: 0
  m_AreaSize: {x: 1, y: 1}
  m_BounceIntensity: 1
  m_ColorTemperature: 6570
  m_UseColorTemperature: 0
  m_BoundingSphereOverride: {x: 0, y: 0, z: 0, w: 0}
  m_UseBoundingSphereOverride: 0
  m_UseViewFrustumForShadowCasterCull: 1
  m_ShadowRadius: 0
  m_ShadowAngle: 0
--- !u!1001 &1640577259
PrefabInstance:
  m_ObjectHideFlags: 0
  serializedVersion: 2
  m_Modification:
    m_TransformParent: {fileID: 307504767}
    m_Modifications:
    - target: {fileID: 400002, guid: c0f35ff1d23074af5bcd82d9caa31ebe, type: 3}
      propertyPath: m_LocalScale.x
      value: .820491552
      objectReference: {fileID: 0}
    - target: {fileID: 400002, guid: c0f35ff1d23074af5bcd82d9caa31ebe, type: 3}
      propertyPath: m_LocalScale.y
      value: .820491552
      objectReference: {fileID: 0}
    - target: {fileID: 400002, guid: c0f35ff1d23074af5bcd82d9caa31ebe, type: 3}
      propertyPath: m_LocalScale.z
      value: .820491552
      objectReference: {fileID: 0}
    - target: {fileID: 400002, guid: c0f35ff1d23074af5bcd82d9caa31ebe, type: 3}
      propertyPath: m_LocalPosition.x
      value: -5.45094919
      objectReference: {fileID: 0}
    - target: {fileID: 400002, guid: c0f35ff1d23074af5bcd82d9caa31ebe, type: 3}
      propertyPath: m_LocalPosition.y
      value: .394037664
      objectReference: {fileID: 0}
    - target: {fileID: 400002, guid: c0f35ff1d23074af5bcd82d9caa31ebe, type: 3}
      propertyPath: m_LocalPosition.z
      value: 1.46912265
      objectReference: {fileID: 0}
    - target: {fileID: 400002, guid: c0f35ff1d23074af5bcd82d9caa31ebe, type: 3}
      propertyPath: m_LocalRotation.w
      value: 3.02238448e-07
      objectReference: {fileID: 0}
    - target: {fileID: 400002, guid: c0f35ff1d23074af5bcd82d9caa31ebe, type: 3}
      propertyPath: m_LocalRotation.x
      value: -9.60700959e-08
      objectReference: {fileID: 0}
    - target: {fileID: 400002, guid: c0f35ff1d23074af5bcd82d9caa31ebe, type: 3}
      propertyPath: m_LocalRotation.y
      value: .664520442
      objectReference: {fileID: 0}
    - target: {fileID: 400002, guid: c0f35ff1d23074af5bcd82d9caa31ebe, type: 3}
      propertyPath: m_LocalRotation.z
      value: .747270107
      objectReference: {fileID: 0}
    - target: {fileID: 2300000, guid: c0f35ff1d23074af5bcd82d9caa31ebe, type: 3}
      propertyPath: m_Materials.Array.data[0]
      value: 
      objectReference: {fileID: 2100000, guid: 33b82a22301d648c5afa1a682a259e5d, type: 2}
    m_RemovedComponents:
    - {fileID: 11100000, guid: c0f35ff1d23074af5bcd82d9caa31ebe, type: 3}
  m_SourcePrefab: {fileID: 100100000, guid: c0f35ff1d23074af5bcd82d9caa31ebe, type: 3}
--- !u!1 &1681816811
GameObject:
  m_ObjectHideFlags: 0
  m_CorrespondingSourceObject: {fileID: 0}
  m_PrefabInstance: {fileID: 0}
  m_PrefabAsset: {fileID: 0}
  serializedVersion: 6
  m_Component:
  - component: {fileID: 1681816812}
  - component: {fileID: 1681816813}
  m_Layer: 0
  m_Name: Directional light
  m_TagString: Untagged
  m_Icon: {fileID: 0}
  m_NavMeshLayer: 0
  m_StaticEditorFlags: 0
  m_IsActive: 1
--- !u!4 &1681816812
Transform:
  m_ObjectHideFlags: 0
  m_CorrespondingSourceObject: {fileID: 0}
  m_PrefabInstance: {fileID: 0}
  m_PrefabAsset: {fileID: 0}
  m_GameObject: {fileID: 1681816811}
  m_LocalRotation: {x: 0, y: -0.7071068, z: 0, w: 0.7071067}
  m_LocalPosition: {x: 0, y: 0, z: 0}
  m_LocalScale: {x: 1, y: 1, z: 1}
  m_Children: []
  m_Father: {fileID: 1589894913}
  m_RootOrder: 0
  m_LocalEulerAnglesHint: {x: 0, y: 0, z: 0}
--- !u!108 &1681816813
Light:
  m_ObjectHideFlags: 0
  m_CorrespondingSourceObject: {fileID: 0}
  m_PrefabInstance: {fileID: 0}
  m_PrefabAsset: {fileID: 0}
  m_GameObject: {fileID: 1681816811}
  m_Enabled: 1
  serializedVersion: 10
  m_Type: 1
  m_Shape: 0
  m_Color: {r: 0.49357226, g: 0.0066273054, b: 0.8880597, a: 1}
  m_Intensity: 0.26
  m_Range: 10
  m_SpotAngle: 30
  m_InnerSpotAngle: 21.80208
  m_CookieSize: 10
  m_Shadows:
    m_Type: 0
    m_Resolution: -1
    m_CustomResolution: -1
    m_Strength: 1
    m_Bias: 0.05
    m_NormalBias: 0.4
    m_NearPlane: 0.2
    m_CullingMatrixOverride:
      e00: 1
      e01: 0
      e02: 0
      e03: 0
      e10: 0
      e11: 1
      e12: 0
      e13: 0
      e20: 0
      e21: 0
      e22: 1
      e23: 0
      e30: 0
      e31: 0
      e32: 0
      e33: 1
    m_UseCullingMatrixOverride: 0
  m_Cookie: {fileID: 0}
  m_DrawHalo: 0
  m_Flare: {fileID: 0}
  m_RenderMode: 0
  m_CullingMask:
    serializedVersion: 2
    m_Bits: 4294967295
  m_RenderingLayerMask: 1
  m_Lightmapping: 1
  m_LightShadowCasterMode: 0
  m_AreaSize: {x: 1, y: 1}
  m_BounceIntensity: 1
  m_ColorTemperature: 6570
  m_UseColorTemperature: 0
  m_BoundingSphereOverride: {x: 0, y: 0, z: 0, w: 0}
  m_UseBoundingSphereOverride: 0
  m_UseViewFrustumForShadowCasterCull: 1
  m_ShadowRadius: 0
  m_ShadowAngle: 0
--- !u!1 &1713412972
GameObject:
  m_ObjectHideFlags: 0
  m_CorrespondingSourceObject: {fileID: 0}
  m_PrefabInstance: {fileID: 0}
  m_PrefabAsset: {fileID: 0}
  serializedVersion: 6
  m_Component:
  - component: {fileID: 1713412973}
  - component: {fileID: 1713412974}
  - component: {fileID: 1713412977}
  - component: {fileID: 1713412975}
  - component: {fileID: 1713412978}
  m_Layer: 0
  m_Name: Main Camera
  m_TagString: MainCamera
  m_Icon: {fileID: 0}
  m_NavMeshLayer: 0
  m_StaticEditorFlags: 0
  m_IsActive: 1
--- !u!4 &1713412973
Transform:
  m_ObjectHideFlags: 0
  m_CorrespondingSourceObject: {fileID: 0}
  m_PrefabInstance: {fileID: 0}
  m_PrefabAsset: {fileID: 0}
  m_GameObject: {fileID: 1713412972}
  m_LocalRotation: {x: 0, y: 0, z: 0, w: 1}
  m_LocalPosition: {x: 0, y: 8.789726, z: -20.050507}
  m_LocalScale: {x: 1, y: 1, z: 1}
  m_Children: []
  m_Father: {fileID: 0}
  m_RootOrder: 4
  m_LocalEulerAnglesHint: {x: 0, y: 0, z: 0}
--- !u!20 &1713412974
Camera:
  m_ObjectHideFlags: 0
  m_CorrespondingSourceObject: {fileID: 0}
  m_PrefabInstance: {fileID: 0}
  m_PrefabAsset: {fileID: 0}
  m_GameObject: {fileID: 1713412972}
  m_Enabled: 1
  serializedVersion: 2
  m_ClearFlags: 1
  m_BackGroundColor: {r: 0.0033415034, g: 0.03686789, b: 0.08955222, a: 0.019607844}
  m_projectionMatrixMode: 1
  m_GateFitMode: 2
  m_FOVAxisMode: 0
  m_SensorSize: {x: 36, y: 24}
  m_LensShift: {x: 0, y: 0}
  m_FocalLength: 50
  m_NormalizedViewPortRect:
    serializedVersion: 2
    x: 0
    y: 0
    width: 1
    height: 1
  near clip plane: 0.3
  far clip plane: 2000
  field of view: 60
  orthographic: 0
  orthographic size: 100
  m_Depth: -1
  m_CullingMask:
    serializedVersion: 2
    m_Bits: 4294967295
  m_RenderingPath: -1
  m_TargetTexture: {fileID: 0}
  m_TargetDisplay: 0
  m_TargetEye: 3
  m_HDR: 0
  m_AllowMSAA: 1
  m_AllowDynamicResolution: 0
  m_ForceIntoRT: 0
  m_OcclusionCulling: 1
  m_StereoConvergence: 10
  m_StereoSeparation: 0.022
--- !u!81 &1713412975
AudioListener:
  m_ObjectHideFlags: 0
  m_CorrespondingSourceObject: {fileID: 0}
  m_PrefabInstance: {fileID: 0}
  m_PrefabAsset: {fileID: 0}
  m_GameObject: {fileID: 1713412972}
  m_Enabled: 1
--- !u!124 &1713412977
Behaviour:
  m_ObjectHideFlags: 0
  m_CorrespondingSourceObject: {fileID: 0}
  m_PrefabInstance: {fileID: 0}
  m_PrefabAsset: {fileID: 0}
  m_GameObject: {fileID: 1713412972}
  m_Enabled: 1
--- !u!114 &1713412978
MonoBehaviour:
  m_ObjectHideFlags: 0
  m_CorrespondingSourceObject: {fileID: 0}
  m_PrefabInstance: {fileID: 0}
  m_PrefabAsset: {fileID: 0}
  m_GameObject: {fileID: 1713412972}
  m_Enabled: 1
  m_EditorHideFlags: 0
  m_Script: {fileID: 11500000, guid: 9b39dd70d168b4cbea9a7b8561d9accc, type: 3}
  m_Name: 
  m_EditorClassIdentifier: 
  dudeTexture: {fileID: 2800000, guid: 5f7fa9a7940a64e79b5a42d9f661d42c, type: 3}
  prefabParticles: {fileID: 100000, guid: d50011a464d5f44ccbfefb117020e5cb, type: 3}
--- !u!1001 &1954056575
PrefabInstance:
  m_ObjectHideFlags: 0
  serializedVersion: 2
  m_Modification:
    m_TransformParent: {fileID: 0}
    m_Modifications:
    - target: {fileID: 400000, guid: 0d9158a373e64481db63423af851bdc9, type: 3}
      propertyPath: m_LocalScale.x
      value: .100000001
      objectReference: {fileID: 0}
    - target: {fileID: 400000, guid: 0d9158a373e64481db63423af851bdc9, type: 3}
      propertyPath: m_LocalScale.y
      value: 16360.1113
      objectReference: {fileID: 0}
    - target: {fileID: 400000, guid: 0d9158a373e64481db63423af851bdc9, type: 3}
      propertyPath: m_LocalScale.z
      value: .100000001
      objectReference: {fileID: 0}
    - target: {fileID: 400000, guid: 0d9158a373e64481db63423af851bdc9, type: 3}
      propertyPath: m_LocalPosition.x
      value: -1.03213197e-05
      objectReference: {fileID: 0}
    - target: {fileID: 400000, guid: 0d9158a373e64481db63423af851bdc9, type: 3}
      propertyPath: m_LocalPosition.y
      value: 10.40802
      objectReference: {fileID: 0}
    - target: {fileID: 400000, guid: 0d9158a373e64481db63423af851bdc9, type: 3}
      propertyPath: m_LocalPosition.z
      value: -1.26783874e-07
      objectReference: {fileID: 0}
    - target: {fileID: 400000, guid: 0d9158a373e64481db63423af851bdc9, type: 3}
      propertyPath: m_LocalRotation.w
      value: -1
      objectReference: {fileID: 0}
    - target: {fileID: 400000, guid: 0d9158a373e64481db63423af851bdc9, type: 3}
      propertyPath: m_LocalRotation.x
      value: 0
      objectReference: {fileID: 0}
    - target: {fileID: 400000, guid: 0d9158a373e64481db63423af851bdc9, type: 3}
      propertyPath: m_LocalRotation.y
      value: -3.2584137e-07
      objectReference: {fileID: 0}
    - target: {fileID: 400000, guid: 0d9158a373e64481db63423af851bdc9, type: 3}
      propertyPath: m_LocalRotation.z
      value: 0
      objectReference: {fileID: 0}
    - target: {fileID: 2300000, guid: 0d9158a373e64481db63423af851bdc9, type: 3}
      propertyPath: m_Materials.Array.data[0]
      value: 
      objectReference: {fileID: 2100000, guid: a8a5e544bfa0d416892e87b12e93911b, type: 2}
    m_RemovedComponents: []
  m_SourcePrefab: {fileID: 100100000, guid: 0d9158a373e64481db63423af851bdc9, type: 3}
--- !u!1001 &1987929027
PrefabInstance:
  m_ObjectHideFlags: 0
  serializedVersion: 2
  m_Modification:
    m_TransformParent: {fileID: 307504767}
    m_Modifications:
    - target: {fileID: 400002, guid: c0f35ff1d23074af5bcd82d9caa31ebe, type: 3}
      propertyPath: m_LocalScale.x
      value: .820491791
      objectReference: {fileID: 0}
    - target: {fileID: 400002, guid: c0f35ff1d23074af5bcd82d9caa31ebe, type: 3}
      propertyPath: m_LocalScale.y
      value: .82601428
      objectReference: {fileID: 0}
    - target: {fileID: 400002, guid: c0f35ff1d23074af5bcd82d9caa31ebe, type: 3}
      propertyPath: m_LocalScale.z
      value: .826014876
      objectReference: {fileID: 0}
    - target: {fileID: 400002, guid: c0f35ff1d23074af5bcd82d9caa31ebe, type: 3}
      propertyPath: m_LocalPosition.x
      value: 4.44995213
      objectReference: {fileID: 0}
    - target: {fileID: 400002, guid: c0f35ff1d23074af5bcd82d9caa31ebe, type: 3}
      propertyPath: m_LocalPosition.y
      value: .394752502
      objectReference: {fileID: 0}
    - target: {fileID: 400002, guid: c0f35ff1d23074af5bcd82d9caa31ebe, type: 3}
      propertyPath: m_LocalPosition.z
      value: 1.46609211
      objectReference: {fileID: 0}
    - target: {fileID: 400002, guid: c0f35ff1d23074af5bcd82d9caa31ebe, type: 3}
      propertyPath: m_LocalRotation.w
      value: 0
      objectReference: {fileID: 0}
    - target: {fileID: 400002, guid: c0f35ff1d23074af5bcd82d9caa31ebe, type: 3}
      propertyPath: m_LocalRotation.x
      value: 0
      objectReference: {fileID: 0}
    - target: {fileID: 400002, guid: c0f35ff1d23074af5bcd82d9caa31ebe, type: 3}
      propertyPath: m_LocalRotation.y
      value: .664520562
      objectReference: {fileID: 0}
    - target: {fileID: 400002, guid: c0f35ff1d23074af5bcd82d9caa31ebe, type: 3}
      propertyPath: m_LocalRotation.z
      value: .747269988
      objectReference: {fileID: 0}
    - target: {fileID: 2300000, guid: c0f35ff1d23074af5bcd82d9caa31ebe, type: 3}
      propertyPath: m_Materials.Array.data[0]
      value: 
      objectReference: {fileID: 2100000, guid: 33b82a22301d648c5afa1a682a259e5d, type: 2}
    m_RemovedComponents:
    - {fileID: 11100000, guid: c0f35ff1d23074af5bcd82d9caa31ebe, type: 3}
  m_SourcePrefab: {fileID: 100100000, guid: c0f35ff1d23074af5bcd82d9caa31ebe, type: 3}
--- !u!1 &1991876556
GameObject:
  m_ObjectHideFlags: 0
  m_CorrespondingSourceObject: {fileID: 0}
  m_PrefabInstance: {fileID: 0}
  m_PrefabAsset: {fileID: 0}
  serializedVersion: 6
  m_Component:
  - component: {fileID: 1991876557}
  - component: {fileID: 1991876558}
  m_Layer: 0
  m_Name: Directional light
  m_TagString: Untagged
  m_Icon: {fileID: 0}
  m_NavMeshLayer: 0
  m_StaticEditorFlags: 0
  m_IsActive: 1
--- !u!4 &1991876557
Transform:
  m_ObjectHideFlags: 0
  m_CorrespondingSourceObject: {fileID: 0}
  m_PrefabInstance: {fileID: 0}
  m_PrefabAsset: {fileID: 0}
  m_GameObject: {fileID: 1991876556}
  m_LocalRotation: {x: -0.7071068, y: 0, z: 0, w: 0.7071067}
  m_LocalPosition: {x: -0, y: 0, z: 0}
  m_LocalScale: {x: 1, y: 1, z: 1}
  m_Children: []
  m_Father: {fileID: 1589894913}
  m_RootOrder: 3
  m_LocalEulerAnglesHint: {x: 0, y: 0, z: 0}
--- !u!108 &1991876558
Light:
  m_ObjectHideFlags: 0
  m_CorrespondingSourceObject: {fileID: 0}
  m_PrefabInstance: {fileID: 0}
  m_PrefabAsset: {fileID: 0}
  m_GameObject: {fileID: 1991876556}
  m_Enabled: 1
  serializedVersion: 10
  m_Type: 1
  m_Shape: 0
  m_Color: {r: 0.9772466, g: 1, b: 0.18656719, a: 1}
  m_Intensity: 0.28
  m_Range: 10
  m_SpotAngle: 30
  m_InnerSpotAngle: 21.80208
  m_CookieSize: 10
  m_Shadows:
    m_Type: 0
    m_Resolution: -1
    m_CustomResolution: -1
    m_Strength: 1
    m_Bias: 0.05
    m_NormalBias: 0.4
    m_NearPlane: 0.2
    m_CullingMatrixOverride:
      e00: 1
      e01: 0
      e02: 0
      e03: 0
      e10: 0
      e11: 1
      e12: 0
      e13: 0
      e20: 0
      e21: 0
      e22: 1
      e23: 0
      e30: 0
      e31: 0
      e32: 0
      e33: 1
    m_UseCullingMatrixOverride: 0
  m_Cookie: {fileID: 0}
  m_DrawHalo: 0
  m_Flare: {fileID: 0}
  m_RenderMode: 0
  m_CullingMask:
    serializedVersion: 2
    m_Bits: 4294967295
  m_RenderingLayerMask: 1
  m_Lightmapping: 1
  m_LightShadowCasterMode: 0
  m_AreaSize: {x: 1, y: 1}
  m_BounceIntensity: 1
  m_ColorTemperature: 6570
  m_UseColorTemperature: 0
  m_BoundingSphereOverride: {x: 0, y: 0, z: 0, w: 0}
  m_UseBoundingSphereOverride: 0
  m_UseViewFrustumForShadowCasterCull: 1
  m_ShadowRadius: 0
  m_ShadowAngle: 0
