%YAML 1.1
%TAG !u! tag:unity3d.com,2011:
--- !u!114 &11400000
MonoBehaviour:
  m_ObjectHideFlags: 0
  m_CorrespondingSourceObject: {fileID: 0}
  m_PrefabInstance: {fileID: 0}
  m_PrefabAsset: {fileID: 0}
  m_GameObject: {fileID: 0}
  m_Enabled: 1
  m_EditorHideFlags: 0
  m_Script: {fileID: 11500000, guid: e48d6eb4f3f583b449c378dc392fbdd0, type: 3}
  m_Name: Head 8
  m_EditorClassIdentifier: 
  icon: {fileID: 21300000, guid: 3cd2d52b98463de4c81548cbaa28584a, type: 3}
  itemType: 3
  prefab: {fileID: 5365664807795619570, guid: ea3dc46186ead4c47bed32a3ec6d27c6, type: 3}
