%YAML 1.1
%TAG !u! tag:unity3d.com,2011:
--- !u!114 &11400000
MonoBehaviour:
  m_ObjectHideFlags: 0
  m_CorrespondingSourceObject: {fileID: 0}
  m_PrefabInstance: {fileID: 0}
  m_PrefabAsset: {fileID: 0}
  m_GameObject: {fileID: 0}
  m_Enabled: 1
  m_EditorHideFlags: 0
  m_Script: {fileID: 11500000, guid: ace94f3ca5a82a3469a5a0dad8159b7f, type: 3}
  m_Name: hair 7
  m_EditorClassIdentifier: 
  id: 9b22f036-eccf-4a70-9b04-adfb5b365338
  itemType: 3
  cost: 5
  character: {fileID: 0}
  weapon: {fileID: 0}
  mapName: 
  cosmetic: {fileID: 11400000, guid: 771f8d29b1f113543ba0e8ed5d1c3d1f, type: 2}
  itemPreview: {fileID: 21300000, guid: b1f7d44a0be781a4298205c8484f7343, type: 3}
