%YAML 1.1
%TAG !u! tag:unity3d.com,2011:
--- !u!74 &7400000
AnimationClip:
  m_ObjectHideFlags: 0
  m_CorrespondingSourceObject: {fileID: 0}
  m_PrefabInstance: {fileID: 0}
  m_PrefabAsset: {fileID: 0}
  m_Name: Computer8
  serializedVersion: 6
  m_Legacy: 0
  m_Compressed: 0
  m_UseHighQualityCurve: 1
  m_RotationCurves: []
  m_CompressedRotationCurves: []
  m_EulerCurves: []
  m_PositionCurves: []
  m_ScaleCurves: []
  m_FloatCurves: []
  m_PPtrCurves:
  - curve:
    - time: 0
      value: {fileID: 21300000, guid: cc89928f16e7a463791b5f786d48fa89, type: 3}
    - time: 0.083333336
      value: {fileID: 21300000, guid: 511bbe6b609fe47e79aac4fe9444c305, type: 3}
    - time: 0.16666667
      value: {fileID: 21300000, guid: 83200796817f6439eaf969392dc95ea5, type: 3}
    - time: 0.25
      value: {fileID: 21300000, guid: 0d0454f197a9941cb96f88399ff05a0e, type: 3}
    - time: 0.33333334
      value: {fileID: 21300000, guid: 253f64056033f465281eab890c58553c, type: 3}
    - time: 0.41666666
      value: {fileID: 21300000, guid: f34d5ecc669df419f8fa2176b6c6bc99, type: 3}
    - time: 0.5
      value: {fileID: 21300000, guid: 4f8a0b3d6e3c2419682517ac60e0954b, type: 3}
    - time: 0.5833333
      value: {fileID: 21300000, guid: b76d8ecc42e924abe9ba65f0ff8c9769, type: 3}
    - time: 0.6666667
      value: {fileID: 21300000, guid: 8555f2ebce3ea48129d35cc14be6aeb4, type: 3}
    - time: 0.75
      value: {fileID: 21300000, guid: 28cab7a96223f43c2aef5cffb757c475, type: 3}
    attribute: m_Sprite
    path: 
    classID: 212
    script: {fileID: 0}
  m_SampleRate: 12
  m_WrapMode: 0
  m_Bounds:
    m_Center: {x: 0, y: 0, z: 0}
    m_Extent: {x: 0, y: 0, z: 0}
  m_ClipBindingConstant:
    genericBindings:
    - serializedVersion: 2
      path: 0
      attribute: 0
      script: {fileID: 0}
      typeID: 212
      customType: 23
      isPPtrCurve: 1
    pptrCurveMapping:
    - {fileID: 21300000, guid: cc89928f16e7a463791b5f786d48fa89, type: 3}
    - {fileID: 21300000, guid: 511bbe6b609fe47e79aac4fe9444c305, type: 3}
    - {fileID: 21300000, guid: 83200796817f6439eaf969392dc95ea5, type: 3}
    - {fileID: 21300000, guid: 0d0454f197a9941cb96f88399ff05a0e, type: 3}
    - {fileID: 21300000, guid: 253f64056033f465281eab890c58553c, type: 3}
    - {fileID: 21300000, guid: f34d5ecc669df419f8fa2176b6c6bc99, type: 3}
    - {fileID: 21300000, guid: 4f8a0b3d6e3c2419682517ac60e0954b, type: 3}
    - {fileID: 21300000, guid: b76d8ecc42e924abe9ba65f0ff8c9769, type: 3}
    - {fileID: 21300000, guid: 8555f2ebce3ea48129d35cc14be6aeb4, type: 3}
    - {fileID: 21300000, guid: 28cab7a96223f43c2aef5cffb757c475, type: 3}
  m_AnimationClipSettings:
    serializedVersion: 2
    m_AdditiveReferencePoseClip: {fileID: 0}
    m_AdditiveReferencePoseTime: 0
    m_StartTime: 0
    m_StopTime: 0.8333333
    m_OrientationOffsetY: 0
    m_Level: 0
    m_CycleOffset: 0
    m_HasAdditiveReferencePose: 0
    m_LoopTime: 1
    m_LoopBlend: 0
    m_LoopBlendOrientation: 0
    m_LoopBlendPositionY: 0
    m_LoopBlendPositionXZ: 0
    m_KeepOriginalOrientation: 0
    m_KeepOriginalPositionY: 1
    m_KeepOriginalPositionXZ: 0
    m_HeightFromFeet: 0
    m_Mirror: 0
  m_EditorCurves: []
  m_EulerEditorCurves: []
  m_HasGenericRootTransform: 0
  m_HasMotionFloatCurves: 0
  m_Events: []
