%YAML 1.1
%TAG !u! tag:unity3d.com,2011:
--- !u!74 &7400000
AnimationClip:
  m_ObjectHideFlags: 0
  m_CorrespondingSourceObject: {fileID: 0}
  m_PrefabInstance: {fileID: 0}
  m_PrefabAsset: {fileID: 0}
  m_Name: Computer9
  serializedVersion: 6
  m_Legacy: 0
  m_Compressed: 0
  m_UseHighQualityCurve: 1
  m_RotationCurves: []
  m_CompressedRotationCurves: []
  m_EulerCurves: []
  m_PositionCurves: []
  m_ScaleCurves: []
  m_FloatCurves: []
  m_PPtrCurves:
  - curve:
    - time: 0
      value: {fileID: 21300000, guid: 54f11761dc1ed49c7a1a6e7c2f4b803d, type: 3}
    - time: 0.083333336
      value: {fileID: 21300000, guid: 0b47de56f122f4907b1fd41175f1fad2, type: 3}
    - time: 0.16666667
      value: {fileID: 21300000, guid: de018e602f44d486fa308a8d80973442, type: 3}
    - time: 0.25
      value: {fileID: 21300000, guid: a69fb5466d9d946bb9bbbc2e8343d511, type: 3}
    - time: 0.33333334
      value: {fileID: 21300000, guid: 7198533a97151409eb019f9252b22ae7, type: 3}
    - time: 0.41666666
      value: {fileID: 21300000, guid: 6fd64d206efc14ab3956dd630e28f490, type: 3}
    - time: 0.5
      value: {fileID: 21300000, guid: c869a84430b4340b79ccaf832bd2b34e, type: 3}
    - time: 0.5833333
      value: {fileID: 21300000, guid: d25cb64b676134b21a24200f099af044, type: 3}
    - time: 0.6666667
      value: {fileID: 21300000, guid: 12c911ea46d504f578df27b5feb02831, type: 3}
    - time: 0.75
      value: {fileID: 21300000, guid: 5c29b36d9f2ec438d8a7be87c9c9510f, type: 3}
    attribute: m_Sprite
    path: 
    classID: 212
    script: {fileID: 0}
  m_SampleRate: 12
  m_WrapMode: 0
  m_Bounds:
    m_Center: {x: 0, y: 0, z: 0}
    m_Extent: {x: 0, y: 0, z: 0}
  m_ClipBindingConstant:
    genericBindings:
    - serializedVersion: 2
      path: 0
      attribute: 0
      script: {fileID: 0}
      typeID: 212
      customType: 23
      isPPtrCurve: 1
    pptrCurveMapping:
    - {fileID: 21300000, guid: 54f11761dc1ed49c7a1a6e7c2f4b803d, type: 3}
    - {fileID: 21300000, guid: 0b47de56f122f4907b1fd41175f1fad2, type: 3}
    - {fileID: 21300000, guid: de018e602f44d486fa308a8d80973442, type: 3}
    - {fileID: 21300000, guid: a69fb5466d9d946bb9bbbc2e8343d511, type: 3}
    - {fileID: 21300000, guid: 7198533a97151409eb019f9252b22ae7, type: 3}
    - {fileID: 21300000, guid: 6fd64d206efc14ab3956dd630e28f490, type: 3}
    - {fileID: 21300000, guid: c869a84430b4340b79ccaf832bd2b34e, type: 3}
    - {fileID: 21300000, guid: d25cb64b676134b21a24200f099af044, type: 3}
    - {fileID: 21300000, guid: 12c911ea46d504f578df27b5feb02831, type: 3}
    - {fileID: 21300000, guid: 5c29b36d9f2ec438d8a7be87c9c9510f, type: 3}
  m_AnimationClipSettings:
    serializedVersion: 2
    m_AdditiveReferencePoseClip: {fileID: 0}
    m_AdditiveReferencePoseTime: 0
    m_StartTime: 0
    m_StopTime: 0.8333333
    m_OrientationOffsetY: 0
    m_Level: 0
    m_CycleOffset: 0
    m_HasAdditiveReferencePose: 0
    m_LoopTime: 1
    m_LoopBlend: 0
    m_LoopBlendOrientation: 0
    m_LoopBlendPositionY: 0
    m_LoopBlendPositionXZ: 0
    m_KeepOriginalOrientation: 0
    m_KeepOriginalPositionY: 1
    m_KeepOriginalPositionXZ: 0
    m_HeightFromFeet: 0
    m_Mirror: 0
  m_EditorCurves: []
  m_EulerEditorCurves: []
  m_HasGenericRootTransform: 0
  m_HasMotionFloatCurves: 0
  m_Events: []
