%YAML 1.1
%TAG !u! tag:unity3d.com,2011:
--- !u!74 &7400000
AnimationClip:
  m_ObjectHideFlags: 0
  m_CorrespondingSourceObject: {fileID: 0}
  m_PrefabInstance: {fileID: 0}
  m_PrefabAsset: {fileID: 0}
  m_Name: Electrical_device
  serializedVersion: 6
  m_Legacy: 0
  m_Compressed: 0
  m_UseHighQualityCurve: 1
  m_RotationCurves: []
  m_CompressedRotationCurves: []
  m_EulerCurves: []
  m_PositionCurves: []
  m_ScaleCurves: []
  m_FloatCurves: []
  m_PPtrCurves:
  - curve:
    - time: 0
      value: {fileID: 21300000, guid: 753f662b87556493d8426e5b0ea2f15b, type: 3}
    - time: 0.083333336
      value: {fileID: 21300000, guid: 0b99dee3a21cd4e8d80d7905ffed73fc, type: 3}
    - time: 0.16666667
      value: {fileID: 21300000, guid: c531886b03fc14dc4b6957194d2478a0, type: 3}
    - time: 0.25
      value: {fileID: 21300000, guid: ff54949fc0ca74e6fa214b3600a2321a, type: 3}
    - time: 0.33333334
      value: {fileID: 21300000, guid: 2d4c3d87d367e4b1582bf2667234d328, type: 3}
    - time: 0.41666666
      value: {fileID: 21300000, guid: 29addc739856a41e59d70835c81f4f2c, type: 3}
    - time: 0.5
      value: {fileID: 21300000, guid: 764a64d6e3c444ff0ba43b5bc2bda101, type: 3}
    - time: 0.5833333
      value: {fileID: 21300000, guid: 41a465d2d37d04786aa20630f3397fa9, type: 3}
    - time: 0.6666667
      value: {fileID: 21300000, guid: ef20b203940cf4876b19920fc6654944, type: 3}
    - time: 0.75
      value: {fileID: 21300000, guid: 39537dfe4415c4b52b9af2486020a570, type: 3}
    - time: 0.8333333
      value: {fileID: 21300000, guid: 488abcc77a2a04de59f587c885d94eec, type: 3}
    - time: 0.9166667
      value: {fileID: 21300000, guid: faae2bd3b0b144330a4f890102451870, type: 3}
    - time: 1
      value: {fileID: 21300000, guid: 2b0335880a8074a9795e7dad90f86b67, type: 3}
    - time: 1.0833334
      value: {fileID: 21300000, guid: a012a3aa4a2454fb6a9dcae324efbf08, type: 3}
    - time: 1.1666666
      value: {fileID: 21300000, guid: ce105f3a24b5e441681dc2f593ff025a, type: 3}
    attribute: m_Sprite
    path: 
    classID: 212
    script: {fileID: 0}
  m_SampleRate: 12
  m_WrapMode: 0
  m_Bounds:
    m_Center: {x: 0, y: 0, z: 0}
    m_Extent: {x: 0, y: 0, z: 0}
  m_ClipBindingConstant:
    genericBindings:
    - serializedVersion: 2
      path: 0
      attribute: 0
      script: {fileID: 0}
      typeID: 212
      customType: 23
      isPPtrCurve: 1
    pptrCurveMapping:
    - {fileID: 21300000, guid: 753f662b87556493d8426e5b0ea2f15b, type: 3}
    - {fileID: 21300000, guid: 0b99dee3a21cd4e8d80d7905ffed73fc, type: 3}
    - {fileID: 21300000, guid: c531886b03fc14dc4b6957194d2478a0, type: 3}
    - {fileID: 21300000, guid: ff54949fc0ca74e6fa214b3600a2321a, type: 3}
    - {fileID: 21300000, guid: 2d4c3d87d367e4b1582bf2667234d328, type: 3}
    - {fileID: 21300000, guid: 29addc739856a41e59d70835c81f4f2c, type: 3}
    - {fileID: 21300000, guid: 764a64d6e3c444ff0ba43b5bc2bda101, type: 3}
    - {fileID: 21300000, guid: 41a465d2d37d04786aa20630f3397fa9, type: 3}
    - {fileID: 21300000, guid: ef20b203940cf4876b19920fc6654944, type: 3}
    - {fileID: 21300000, guid: 39537dfe4415c4b52b9af2486020a570, type: 3}
    - {fileID: 21300000, guid: 488abcc77a2a04de59f587c885d94eec, type: 3}
    - {fileID: 21300000, guid: faae2bd3b0b144330a4f890102451870, type: 3}
    - {fileID: 21300000, guid: 2b0335880a8074a9795e7dad90f86b67, type: 3}
    - {fileID: 21300000, guid: a012a3aa4a2454fb6a9dcae324efbf08, type: 3}
    - {fileID: 21300000, guid: ce105f3a24b5e441681dc2f593ff025a, type: 3}
  m_AnimationClipSettings:
    serializedVersion: 2
    m_AdditiveReferencePoseClip: {fileID: 0}
    m_AdditiveReferencePoseTime: 0
    m_StartTime: 0
    m_StopTime: 1.25
    m_OrientationOffsetY: 0
    m_Level: 0
    m_CycleOffset: 0
    m_HasAdditiveReferencePose: 0
    m_LoopTime: 1
    m_LoopBlend: 0
    m_LoopBlendOrientation: 0
    m_LoopBlendPositionY: 0
    m_LoopBlendPositionXZ: 0
    m_KeepOriginalOrientation: 0
    m_KeepOriginalPositionY: 1
    m_KeepOriginalPositionXZ: 0
    m_HeightFromFeet: 0
    m_Mirror: 0
  m_EditorCurves: []
  m_EulerEditorCurves: []
  m_HasGenericRootTransform: 0
  m_HasMotionFloatCurves: 0
  m_Events: []
