%YAML 1.1
%TAG !u! tag:unity3d.com,2011:
--- !u!74 &7400000
AnimationClip:
  m_ObjectHideFlags: 0
  m_CorrespondingSourceObject: {fileID: 0}
  m_PrefabInstance: {fileID: 0}
  m_PrefabAsset: {fileID: 0}
  m_Name: LabBeamCharge
  serializedVersion: 6
  m_Legacy: 0
  m_Compressed: 0
  m_UseHighQualityCurve: 1
  m_RotationCurves: []
  m_CompressedRotationCurves: []
  m_EulerCurves: []
  m_PositionCurves: []
  m_ScaleCurves:
  - curve:
      serializedVersion: 2
      m_Curve:
      - serializedVersion: 3
        time: 0
        value: {x: 1, y: 1, z: 1}
        inSlope: {x: 0, y: 0, z: 0}
        outSlope: {x: 0, y: 0, z: 0}
        tangentMode: 0
        weightedMode: 0
        inWeight: {x: 0.33333334, y: 0.33333334, z: 0.33333334}
        outWeight: {x: 0.33333334, y: 0.33333334, z: 0.33333334}
      - serializedVersion: 3
        time: 1.1833333
        value: {x: 1, y: 30, z: 1}
        inSlope: {x: 0, y: 0, z: 0}
        outSlope: {x: 0, y: 0, z: 0}
        tangentMode: 0
        weightedMode: 0
        inWeight: {x: 0.33333334, y: 0.33333334, z: 0.33333334}
        outWeight: {x: 0.33333334, y: 0.33333334, z: 0.33333334}
      m_PreInfinity: 2
      m_PostInfinity: 2
      m_RotationOrder: 4
    path: LabMachine/Beam
  m_FloatCurves:
  - curve:
      serializedVersion: 2
      m_Curve:
      - serializedVersion: 3
        time: 0
        value: 0
        inSlope: Infinity
        outSlope: Infinity
        tangentMode: 103
        weightedMode: 0
        inWeight: 0
        outWeight: 0
      - serializedVersion: 3
        time: 0.85
        value: 1
        inSlope: Infinity
        outSlope: Infinity
        tangentMode: 103
        weightedMode: 0
        inWeight: 0
        outWeight: 0
      m_PreInfinity: 2
      m_PostInfinity: 2
      m_RotationOrder: 4
    attribute: m_IsActive
    path: LabMachine/Beam
    classID: 1
    script: {fileID: 0}
  - curve:
      serializedVersion: 2
      m_Curve:
      - serializedVersion: 3
        time: 0
        value: 0
        inSlope: Infinity
        outSlope: Infinity
        tangentMode: 103
        weightedMode: 0
        inWeight: 0
        outWeight: 0
      - serializedVersion: 3
        time: 1.1833333
        value: 1
        inSlope: Infinity
        outSlope: Infinity
        tangentMode: 103
        weightedMode: 0
        inWeight: 0
        outWeight: 0
      m_PreInfinity: 2
      m_PostInfinity: 2
      m_RotationOrder: 4
    attribute: m_IsActive
    path: LabMachine/hit
    classID: 1
    script: {fileID: 0}
  m_PPtrCurves:
  - curve:
    - time: 0
      value: {fileID: 21300000, guid: 6220a72db99063c448dace21e1a538b1, type: 3}
    attribute: m_Sprite
    path: LabMachine
    classID: 212
    script: {fileID: 0}
  - curve:
    - time: 0
      value: {fileID: 0}
    - time: 0.16666667
      value: {fileID: 21300000, guid: f85e2ccbfe82be540b24a81bc9ed7942, type: 3}
    - time: 0.18333334
      value: {fileID: 21300000, guid: 76863bc67bb61a0459c39a37875388a7, type: 3}
    - time: 0.2
      value: {fileID: 21300000, guid: cf4e4c6d31f4cb145936cdb7a703355e, type: 3}
    - time: 0.21666667
      value: {fileID: 21300000, guid: 06d9a007a61d92b418cd82cf45c77cf6, type: 3}
    - time: 0.23333333
      value: {fileID: 21300000, guid: f6ff6ddbd1c1b1541b87f54148ed208b, type: 3}
    - time: 0.25
      value: {fileID: 21300000, guid: e598589687c60ff44bf612d36d47e91d, type: 3}
    - time: 0.3
      value: {fileID: 21300000, guid: f85e2ccbfe82be540b24a81bc9ed7942, type: 3}
    - time: 0.31666666
      value: {fileID: 21300000, guid: 76863bc67bb61a0459c39a37875388a7, type: 3}
    - time: 0.33333334
      value: {fileID: 21300000, guid: cf4e4c6d31f4cb145936cdb7a703355e, type: 3}
    - time: 0.35
      value: {fileID: 21300000, guid: 06d9a007a61d92b418cd82cf45c77cf6, type: 3}
    - time: 0.36666667
      value: {fileID: 21300000, guid: f6ff6ddbd1c1b1541b87f54148ed208b, type: 3}
    - time: 0.38333333
      value: {fileID: 21300000, guid: e598589687c60ff44bf612d36d47e91d, type: 3}
    - time: 0.43333334
      value: {fileID: 21300000, guid: f85e2ccbfe82be540b24a81bc9ed7942, type: 3}
    - time: 0.45
      value: {fileID: 21300000, guid: 76863bc67bb61a0459c39a37875388a7, type: 3}
    - time: 0.46666667
      value: {fileID: 21300000, guid: cf4e4c6d31f4cb145936cdb7a703355e, type: 3}
    - time: 0.48333332
      value: {fileID: 21300000, guid: 06d9a007a61d92b418cd82cf45c77cf6, type: 3}
    - time: 0.5
      value: {fileID: 21300000, guid: f6ff6ddbd1c1b1541b87f54148ed208b, type: 3}
    - time: 0.51666665
      value: {fileID: 21300000, guid: e598589687c60ff44bf612d36d47e91d, type: 3}
    - time: 0.5833333
      value: {fileID: 21300000, guid: f85e2ccbfe82be540b24a81bc9ed7942, type: 3}
    - time: 0.6
      value: {fileID: 21300000, guid: 76863bc67bb61a0459c39a37875388a7, type: 3}
    - time: 0.6166667
      value: {fileID: 21300000, guid: cf4e4c6d31f4cb145936cdb7a703355e, type: 3}
    - time: 0.6333333
      value: {fileID: 21300000, guid: 06d9a007a61d92b418cd82cf45c77cf6, type: 3}
    - time: 0.65
      value: {fileID: 21300000, guid: f6ff6ddbd1c1b1541b87f54148ed208b, type: 3}
    - time: 0.6666667
      value: {fileID: 21300000, guid: e598589687c60ff44bf612d36d47e91d, type: 3}
    - time: 0.73333335
      value: {fileID: 21300000, guid: f85e2ccbfe82be540b24a81bc9ed7942, type: 3}
    - time: 0.75
      value: {fileID: 21300000, guid: 76863bc67bb61a0459c39a37875388a7, type: 3}
    - time: 0.76666665
      value: {fileID: 21300000, guid: cf4e4c6d31f4cb145936cdb7a703355e, type: 3}
    - time: 0.78333336
      value: {fileID: 21300000, guid: 06d9a007a61d92b418cd82cf45c77cf6, type: 3}
    - time: 0.8
      value: {fileID: 21300000, guid: f6ff6ddbd1c1b1541b87f54148ed208b, type: 3}
    - time: 0.81666666
      value: {fileID: 21300000, guid: e598589687c60ff44bf612d36d47e91d, type: 3}
    - time: 0.8333333
      value: {fileID: 21300000, guid: 36667eac6ab333f44b76b13e0906cf3b, type: 3}
    - time: 0.8666667
      value: {fileID: 21300000, guid: ded57137d29eef64dad46bd2ace78ad1, type: 3}
    attribute: m_Sprite
    path: LabMachine/Square
    classID: 212
    script: {fileID: 0}
  m_SampleRate: 60
  m_WrapMode: 0
  m_Bounds:
    m_Center: {x: 0, y: 0, z: 0}
    m_Extent: {x: 0, y: 0, z: 0}
  m_ClipBindingConstant:
    genericBindings:
    - serializedVersion: 2
      path: 4198287223
      attribute: 3
      script: {fileID: 0}
      typeID: 4
      customType: 0
      isPPtrCurve: 0
    - serializedVersion: 2
      path: 4198287223
      attribute: 2086281974
      script: {fileID: 0}
      typeID: 1
      customType: 0
      isPPtrCurve: 0
    - serializedVersion: 2
      path: 3357674628
      attribute: 2086281974
      script: {fileID: 0}
      typeID: 1
      customType: 0
      isPPtrCurve: 0
    - serializedVersion: 2
      path: 4178478111
      attribute: 0
      script: {fileID: 0}
      typeID: 212
      customType: 23
      isPPtrCurve: 1
    - serializedVersion: 2
      path: 2415724434
      attribute: 0
      script: {fileID: 0}
      typeID: 212
      customType: 23
      isPPtrCurve: 1
    pptrCurveMapping:
    - {fileID: 21300000, guid: 6220a72db99063c448dace21e1a538b1, type: 3}
    - {fileID: 0}
    - {fileID: 21300000, guid: f85e2ccbfe82be540b24a81bc9ed7942, type: 3}
    - {fileID: 21300000, guid: 76863bc67bb61a0459c39a37875388a7, type: 3}
    - {fileID: 21300000, guid: cf4e4c6d31f4cb145936cdb7a703355e, type: 3}
    - {fileID: 21300000, guid: 06d9a007a61d92b418cd82cf45c77cf6, type: 3}
    - {fileID: 21300000, guid: f6ff6ddbd1c1b1541b87f54148ed208b, type: 3}
    - {fileID: 21300000, guid: e598589687c60ff44bf612d36d47e91d, type: 3}
    - {fileID: 21300000, guid: f85e2ccbfe82be540b24a81bc9ed7942, type: 3}
    - {fileID: 21300000, guid: 76863bc67bb61a0459c39a37875388a7, type: 3}
    - {fileID: 21300000, guid: cf4e4c6d31f4cb145936cdb7a703355e, type: 3}
    - {fileID: 21300000, guid: 06d9a007a61d92b418cd82cf45c77cf6, type: 3}
    - {fileID: 21300000, guid: f6ff6ddbd1c1b1541b87f54148ed208b, type: 3}
    - {fileID: 21300000, guid: e598589687c60ff44bf612d36d47e91d, type: 3}
    - {fileID: 21300000, guid: f85e2ccbfe82be540b24a81bc9ed7942, type: 3}
    - {fileID: 21300000, guid: 76863bc67bb61a0459c39a37875388a7, type: 3}
    - {fileID: 21300000, guid: cf4e4c6d31f4cb145936cdb7a703355e, type: 3}
    - {fileID: 21300000, guid: 06d9a007a61d92b418cd82cf45c77cf6, type: 3}
    - {fileID: 21300000, guid: f6ff6ddbd1c1b1541b87f54148ed208b, type: 3}
    - {fileID: 21300000, guid: e598589687c60ff44bf612d36d47e91d, type: 3}
    - {fileID: 21300000, guid: f85e2ccbfe82be540b24a81bc9ed7942, type: 3}
    - {fileID: 21300000, guid: 76863bc67bb61a0459c39a37875388a7, type: 3}
    - {fileID: 21300000, guid: cf4e4c6d31f4cb145936cdb7a703355e, type: 3}
    - {fileID: 21300000, guid: 06d9a007a61d92b418cd82cf45c77cf6, type: 3}
    - {fileID: 21300000, guid: f6ff6ddbd1c1b1541b87f54148ed208b, type: 3}
    - {fileID: 21300000, guid: e598589687c60ff44bf612d36d47e91d, type: 3}
    - {fileID: 21300000, guid: f85e2ccbfe82be540b24a81bc9ed7942, type: 3}
    - {fileID: 21300000, guid: 76863bc67bb61a0459c39a37875388a7, type: 3}
    - {fileID: 21300000, guid: cf4e4c6d31f4cb145936cdb7a703355e, type: 3}
    - {fileID: 21300000, guid: 06d9a007a61d92b418cd82cf45c77cf6, type: 3}
    - {fileID: 21300000, guid: f6ff6ddbd1c1b1541b87f54148ed208b, type: 3}
    - {fileID: 21300000, guid: e598589687c60ff44bf612d36d47e91d, type: 3}
    - {fileID: 21300000, guid: 36667eac6ab333f44b76b13e0906cf3b, type: 3}
    - {fileID: 21300000, guid: ded57137d29eef64dad46bd2ace78ad1, type: 3}
  m_AnimationClipSettings:
    serializedVersion: 2
    m_AdditiveReferencePoseClip: {fileID: 0}
    m_AdditiveReferencePoseTime: 0
    m_StartTime: 0
    m_StopTime: 1.1833333
    m_OrientationOffsetY: 0
    m_Level: 0
    m_CycleOffset: 0
    m_HasAdditiveReferencePose: 0
    m_LoopTime: 0
    m_LoopBlend: 0
    m_LoopBlendOrientation: 0
    m_LoopBlendPositionY: 0
    m_LoopBlendPositionXZ: 0
    m_KeepOriginalOrientation: 0
    m_KeepOriginalPositionY: 1
    m_KeepOriginalPositionXZ: 0
    m_HeightFromFeet: 0
    m_Mirror: 0
  m_EditorCurves:
  - curve:
      serializedVersion: 2
      m_Curve:
      - serializedVersion: 3
        time: 0
        value: 0
        inSlope: Infinity
        outSlope: Infinity
        tangentMode: 103
        weightedMode: 0
        inWeight: 0
        outWeight: 0
      - serializedVersion: 3
        time: 0.85
        value: 1
        inSlope: Infinity
        outSlope: Infinity
        tangentMode: 103
        weightedMode: 0
        inWeight: 0
        outWeight: 0
      m_PreInfinity: 2
      m_PostInfinity: 2
      m_RotationOrder: 4
    attribute: m_IsActive
    path: LabMachine/Beam
    classID: 1
    script: {fileID: 0}
  - curve:
      serializedVersion: 2
      m_Curve:
      - serializedVersion: 3
        time: 0
        value: 1
        inSlope: 0
        outSlope: 0
        tangentMode: 136
        weightedMode: 0
        inWeight: 0.33333334
        outWeight: 0.33333334
      - serializedVersion: 3
        time: 1.1833333
        value: 1
        inSlope: 0
        outSlope: 0
        tangentMode: 136
        weightedMode: 0
        inWeight: 0.33333334
        outWeight: 0.33333334
      m_PreInfinity: 2
      m_PostInfinity: 2
      m_RotationOrder: 4
    attribute: m_LocalScale.x
    path: LabMachine/Beam
    classID: 4
    script: {fileID: 0}
  - curve:
      serializedVersion: 2
      m_Curve:
      - serializedVersion: 3
        time: 0
        value: 1
        inSlope: 0
        outSlope: 0
        tangentMode: 136
        weightedMode: 0
        inWeight: 0.33333334
        outWeight: 0.33333334
      - serializedVersion: 3
        time: 1.1833333
        value: 30
        inSlope: 0
        outSlope: 0
        tangentMode: 136
        weightedMode: 0
        inWeight: 0.33333334
        outWeight: 0.33333334
      m_PreInfinity: 2
      m_PostInfinity: 2
      m_RotationOrder: 4
    attribute: m_LocalScale.y
    path: LabMachine/Beam
    classID: 4
    script: {fileID: 0}
  - curve:
      serializedVersion: 2
      m_Curve:
      - serializedVersion: 3
        time: 0
        value: 1
        inSlope: 0
        outSlope: 0
        tangentMode: 136
        weightedMode: 0
        inWeight: 0.33333334
        outWeight: 0.33333334
      - serializedVersion: 3
        time: 1.1833333
        value: 1
        inSlope: 0
        outSlope: 0
        tangentMode: 136
        weightedMode: 0
        inWeight: 0.33333334
        outWeight: 0.33333334
      m_PreInfinity: 2
      m_PostInfinity: 2
      m_RotationOrder: 4
    attribute: m_LocalScale.z
    path: LabMachine/Beam
    classID: 4
    script: {fileID: 0}
  - curve:
      serializedVersion: 2
      m_Curve:
      - serializedVersion: 3
        time: 0
        value: 0
        inSlope: Infinity
        outSlope: Infinity
        tangentMode: 103
        weightedMode: 0
        inWeight: 0
        outWeight: 0
      - serializedVersion: 3
        time: 1.1833333
        value: 1
        inSlope: Infinity
        outSlope: Infinity
        tangentMode: 103
        weightedMode: 0
        inWeight: 0
        outWeight: 0
      m_PreInfinity: 2
      m_PostInfinity: 2
      m_RotationOrder: 4
    attribute: m_IsActive
    path: LabMachine/hit
    classID: 1
    script: {fileID: 0}
  m_EulerEditorCurves: []
  m_HasGenericRootTransform: 0
  m_HasMotionFloatCurves: 0
  m_Events: []
