%YAML 1.1
%TAG !u! tag:unity3d.com,2011:
--- !u!74 &7400000
AnimationClip:
  m_ObjectHideFlags: 0
  m_CorrespondingSourceObject: {fileID: 0}
  m_PrefabInstance: {fileID: 0}
  m_PrefabAsset: {fileID: 0}
  m_Name: Monster
  serializedVersion: 6
  m_Legacy: 0
  m_Compressed: 0
  m_UseHighQualityCurve: 1
  m_RotationCurves: []
  m_CompressedRotationCurves: []
  m_EulerCurves: []
  m_PositionCurves: []
  m_ScaleCurves: []
  m_FloatCurves: []
  m_PPtrCurves:
  - curve:
    - time: 0
      value: {fileID: 21300000, guid: f974ea7374f0641b6a1fd467cb433c5d, type: 3}
    - time: 0.083333336
      value: {fileID: 21300000, guid: 3089606c4b6634243ba2890f7de32619, type: 3}
    - time: 0.16666667
      value: {fileID: 21300000, guid: 763fb51ca81f14d339a3bb8b66fd09ec, type: 3}
    - time: 0.25
      value: {fileID: 21300000, guid: e4638d4ff9107483e85cecb5153960a5, type: 3}
    - time: 0.33333334
      value: {fileID: 21300000, guid: 38c21c3494e564c3ea4fff516a84925e, type: 3}
    - time: 0.41666666
      value: {fileID: 21300000, guid: 1a272113496cb4ed1b0ad46f69a41bb4, type: 3}
    - time: 0.5
      value: {fileID: 21300000, guid: 99c07785754f74db0b88690cb699e529, type: 3}
    - time: 0.5833333
      value: {fileID: 21300000, guid: 2cf8366792c3d479fbea67593944d2dc, type: 3}
    - time: 0.6666667
      value: {fileID: 21300000, guid: 7ce766536d670440bb9f9a674c556706, type: 3}
    - time: 0.75
      value: {fileID: 21300000, guid: 4b33ba12b531a4245bd8efc051be54c3, type: 3}
    - time: 0.8333333
      value: {fileID: 21300000, guid: 1aff70be35c5e42e6be54ac5b4f96f8e, type: 3}
    - time: 0.9166667
      value: {fileID: 21300000, guid: b3a6165fdfc1e4196b9943e255227e19, type: 3}
    - time: 1
      value: {fileID: 21300000, guid: 2bb12010d149f4d29a5c9fa03b03a869, type: 3}
    - time: 1.0833334
      value: {fileID: 21300000, guid: 2d4b31722153b4183849e9ee3b736412, type: 3}
    - time: 1.1666666
      value: {fileID: 21300000, guid: aaff5a4a2b3464c7c9a59e07f3a68735, type: 3}
    attribute: m_Sprite
    path: 
    classID: 212
    script: {fileID: 0}
  m_SampleRate: 12
  m_WrapMode: 0
  m_Bounds:
    m_Center: {x: 0, y: 0, z: 0}
    m_Extent: {x: 0, y: 0, z: 0}
  m_ClipBindingConstant:
    genericBindings:
    - serializedVersion: 2
      path: 0
      attribute: 0
      script: {fileID: 0}
      typeID: 212
      customType: 23
      isPPtrCurve: 1
    pptrCurveMapping:
    - {fileID: 21300000, guid: f974ea7374f0641b6a1fd467cb433c5d, type: 3}
    - {fileID: 21300000, guid: 3089606c4b6634243ba2890f7de32619, type: 3}
    - {fileID: 21300000, guid: 763fb51ca81f14d339a3bb8b66fd09ec, type: 3}
    - {fileID: 21300000, guid: e4638d4ff9107483e85cecb5153960a5, type: 3}
    - {fileID: 21300000, guid: 38c21c3494e564c3ea4fff516a84925e, type: 3}
    - {fileID: 21300000, guid: 1a272113496cb4ed1b0ad46f69a41bb4, type: 3}
    - {fileID: 21300000, guid: 99c07785754f74db0b88690cb699e529, type: 3}
    - {fileID: 21300000, guid: 2cf8366792c3d479fbea67593944d2dc, type: 3}
    - {fileID: 21300000, guid: 7ce766536d670440bb9f9a674c556706, type: 3}
    - {fileID: 21300000, guid: 4b33ba12b531a4245bd8efc051be54c3, type: 3}
    - {fileID: 21300000, guid: 1aff70be35c5e42e6be54ac5b4f96f8e, type: 3}
    - {fileID: 21300000, guid: b3a6165fdfc1e4196b9943e255227e19, type: 3}
    - {fileID: 21300000, guid: 2bb12010d149f4d29a5c9fa03b03a869, type: 3}
    - {fileID: 21300000, guid: 2d4b31722153b4183849e9ee3b736412, type: 3}
    - {fileID: 21300000, guid: aaff5a4a2b3464c7c9a59e07f3a68735, type: 3}
  m_AnimationClipSettings:
    serializedVersion: 2
    m_AdditiveReferencePoseClip: {fileID: 0}
    m_AdditiveReferencePoseTime: 0
    m_StartTime: 0
    m_StopTime: 1.25
    m_OrientationOffsetY: 0
    m_Level: 0
    m_CycleOffset: 0
    m_HasAdditiveReferencePose: 0
    m_LoopTime: 1
    m_LoopBlend: 0
    m_LoopBlendOrientation: 0
    m_LoopBlendPositionY: 0
    m_LoopBlendPositionXZ: 0
    m_KeepOriginalOrientation: 0
    m_KeepOriginalPositionY: 1
    m_KeepOriginalPositionXZ: 0
    m_HeightFromFeet: 0
    m_Mirror: 0
  m_EditorCurves: []
  m_EulerEditorCurves: []
  m_HasGenericRootTransform: 0
  m_HasMotionFloatCurves: 0
  m_Events: []
