%YAML 1.1
%TAG !u! tag:unity3d.com,2011:
--- !u!74 &7400000
AnimationClip:
  m_ObjectHideFlags: 0
  m_CorrespondingSourceObject: {fileID: 0}
  m_PrefabInstance: {fileID: 0}
  m_PrefabAsset: {fileID: 0}
  m_Name: PurpleTube
  serializedVersion: 6
  m_Legacy: 0
  m_Compressed: 0
  m_UseHighQualityCurve: 1
  m_RotationCurves: []
  m_CompressedRotationCurves: []
  m_EulerCurves: []
  m_PositionCurves: []
  m_ScaleCurves: []
  m_FloatCurves: []
  m_PPtrCurves:
  - curve:
    - time: 0
      value: {fileID: 21300000, guid: 1ccb481b58f7a47cc91bb25f63831948, type: 3}
    - time: 0.083333336
      value: {fileID: 21300000, guid: 630ca92abba4745d5a6c46edaf1407f8, type: 3}
    - time: 0.16666667
      value: {fileID: 21300000, guid: fa45440be8da546a79fb2b3b492726f3, type: 3}
    - time: 0.25
      value: {fileID: 21300000, guid: e1a0223cd91e24dcb886698ec6b2c262, type: 3}
    - time: 0.33333334
      value: {fileID: 21300000, guid: 52842d79024e047748c34a57dae32caf, type: 3}
    - time: 0.41666666
      value: {fileID: 21300000, guid: 66c20f680535a46af8a88fd315750770, type: 3}
    - time: 0.5
      value: {fileID: 21300000, guid: 2a4b830bb96cf47878fc08c09f1da61d, type: 3}
    - time: 0.5833333
      value: {fileID: 21300000, guid: 99f674e53870d4331823f4e1e433dc07, type: 3}
    - time: 0.6666667
      value: {fileID: 21300000, guid: 3af29d51621934212b13cd838f2cb145, type: 3}
    - time: 0.75
      value: {fileID: 21300000, guid: c8763dd9ef49d44b79959617cd3d1ec1, type: 3}
    attribute: m_Sprite
    path: 
    classID: 212
    script: {fileID: 0}
  m_SampleRate: 12
  m_WrapMode: 0
  m_Bounds:
    m_Center: {x: 0, y: 0, z: 0}
    m_Extent: {x: 0, y: 0, z: 0}
  m_ClipBindingConstant:
    genericBindings:
    - serializedVersion: 2
      path: 0
      attribute: 0
      script: {fileID: 0}
      typeID: 212
      customType: 23
      isPPtrCurve: 1
    pptrCurveMapping:
    - {fileID: 21300000, guid: 1ccb481b58f7a47cc91bb25f63831948, type: 3}
    - {fileID: 21300000, guid: 630ca92abba4745d5a6c46edaf1407f8, type: 3}
    - {fileID: 21300000, guid: fa45440be8da546a79fb2b3b492726f3, type: 3}
    - {fileID: 21300000, guid: e1a0223cd91e24dcb886698ec6b2c262, type: 3}
    - {fileID: 21300000, guid: 52842d79024e047748c34a57dae32caf, type: 3}
    - {fileID: 21300000, guid: 66c20f680535a46af8a88fd315750770, type: 3}
    - {fileID: 21300000, guid: 2a4b830bb96cf47878fc08c09f1da61d, type: 3}
    - {fileID: 21300000, guid: 99f674e53870d4331823f4e1e433dc07, type: 3}
    - {fileID: 21300000, guid: 3af29d51621934212b13cd838f2cb145, type: 3}
    - {fileID: 21300000, guid: c8763dd9ef49d44b79959617cd3d1ec1, type: 3}
  m_AnimationClipSettings:
    serializedVersion: 2
    m_AdditiveReferencePoseClip: {fileID: 0}
    m_AdditiveReferencePoseTime: 0
    m_StartTime: 0
    m_StopTime: 0.8333333
    m_OrientationOffsetY: 0
    m_Level: 0
    m_CycleOffset: 0
    m_HasAdditiveReferencePose: 0
    m_LoopTime: 1
    m_LoopBlend: 0
    m_LoopBlendOrientation: 0
    m_LoopBlendPositionY: 0
    m_LoopBlendPositionXZ: 0
    m_KeepOriginalOrientation: 0
    m_KeepOriginalPositionY: 1
    m_KeepOriginalPositionXZ: 0
    m_HeightFromFeet: 0
    m_Mirror: 0
  m_EditorCurves: []
  m_EulerEditorCurves: []
  m_HasGenericRootTransform: 0
  m_HasMotionFloatCurves: 0
  m_Events: []
