%YAML 1.1
%TAG !u! tag:unity3d.com,2011:
--- !u!114 &11400000
MonoBehaviour:
  m_ObjectHideFlags: 0
  m_CorrespondingSourceObject: {fileID: 0}
  m_PrefabInstance: {fileID: 0}
  m_PrefabAsset: {fileID: 0}
  m_GameObject: {fileID: 0}
  m_Enabled: 1
  m_EditorHideFlags: 0
  m_Script: {fileID: 11500000, guid: ace94f3ca5a82a3469a5a0dad8159b7f, type: 3}
  m_Name: ears 5
  m_EditorClassIdentifier: 
  id: d4a2e39a-a678-42ed-8206-4598bcdd5d8b
  itemType: 3
  cost: 5
  character: {fileID: 0}
  weapon: {fileID: 0}
  mapName: 
  cosmetic: {fileID: 11400000, guid: 73b8c6281da260d42a05d3b37158d98c, type: 2}
  itemPreview: {fileID: 21300000, guid: 92eaa6d0fc26081438c53dc00b678c1b, type: 3}
