%YAML 1.1
%TAG !u! tag:unity3d.com,2011:
--- !u!114 &11400000
MonoBehaviour:
  m_ObjectHideFlags: 0
  m_CorrespondingSourceObject: {fileID: 0}
  m_PrefabInstance: {fileID: 0}
  m_PrefabAsset: {fileID: 0}
  m_GameObject: {fileID: 0}
  m_Enabled: 1
  m_EditorHideFlags: 0
  m_Script: {fileID: 11500000, guid: ace94f3ca5a82a3469a5a0dad8159b7f, type: 3}
  m_Name: ears 2
  m_EditorClassIdentifier: 
  id: 3ec17a86-b522-48c7-8674-6301a4709625
  itemType: 3
  cost: 5
  character: {fileID: 0}
  weapon: {fileID: 0}
  mapName: 
  cosmetic: {fileID: 11400000, guid: 923f2bcc457fbb14db98c7a2326e1a5b, type: 2}
  itemPreview: {fileID: 21300000, guid: 743172ee244683c468fb19543f700f69, type: 3}
