%YAML 1.1
%TAG !u! tag:unity3d.com,2011:
--- !u!114 &11400000
MonoBehaviour:
  m_ObjectHideFlags: 0
  m_CorrespondingSourceObject: {fileID: 0}
  m_PrefabInstance: {fileID: 0}
  m_PrefabAsset: {fileID: 0}
  m_GameObject: {fileID: 0}
  m_Enabled: 1
  m_EditorHideFlags: 0
  m_Script: {fileID: 11500000, guid: ace94f3ca5a82a3469a5a0dad8159b7f, type: 3}
  m_Name: head 8
  m_EditorClassIdentifier: 
  id: 7100a676-3c6a-4c6a-a8db-445c6f4a0aa1
  itemType: 3
  cost: 5
  character: {fileID: 0}
  weapon: {fileID: 0}
  mapName: 
  cosmetic: {fileID: 11400000, guid: ef51c2ea7237572498b176aba0f02756, type: 2}
  itemPreview: {fileID: 21300000, guid: 3cd2d52b98463de4c81548cbaa28584a, type: 3}
