%YAML 1.1
%TAG !u! tag:unity3d.com,2011:
--- !u!114 &11400000
MonoBehaviour:
  m_ObjectHideFlags: 0
  m_CorrespondingSourceObject: {fileID: 0}
  m_PrefabInstance: {fileID: 0}
  m_PrefabAsset: {fileID: 0}
  m_GameObject: {fileID: 0}
  m_Enabled: 1
  m_EditorHideFlags: 0
  m_Script: {fileID: 11500000, guid: ace94f3ca5a82a3469a5a0dad8159b7f, type: 3}
  m_Name: head 3
  m_EditorClassIdentifier: 
  id: d898eeee-1342-4d67-a894-41e216b500d4
  itemType: 3
  cost: 5
  character: {fileID: 0}
  weapon: {fileID: 0}
  mapName: 
  cosmetic: {fileID: 11400000, guid: df8121ce934cf9a419db4abdbd00c9af, type: 2}
  itemPreview: {fileID: 21300000, guid: 45a9c90d5d2deba4488cb67a8938d5a7, type: 3}
