%YAML 1.1
%TAG !u! tag:unity3d.com,2011:
--- !u!114 &11400000
MonoBehaviour:
  m_ObjectHideFlags: 0
  m_CorrespondingSourceObject: {fileID: 0}
  m_PrefabInstance: {fileID: 0}
  m_PrefabAsset: {fileID: 0}
  m_GameObject: {fileID: 0}
  m_Enabled: 1
  m_EditorHideFlags: 0
  m_Script: {fileID: 11500000, guid: a49cda9170739fa4a95cca328eb5a7af, type: 3}
  m_Name: Health Potion
  m_EditorClassIdentifier: 
  icon: {fileID: 21300000, guid: ac0cef968eb214c58bd3c507d9b5d6c5, type: 3}
  pickUpEffect: {fileID: 1459727654116076, guid: 6dafe9472f4dc4b4aa7ceb31137d3a77,
    type: 3}
  addedHealth: 20
  fullRefillHealth: 0
  addedShield: 0
  fullRefillShield: 0
  addedGrenade: 0
  fullRefillAmmo: 0
