%YAML 1.1
%TAG !u! tag:unity3d.com,2011:
--- !u!114 &11400000
MonoBehaviour:
  m_ObjectHideFlags: 0
  m_CorrespondingSourceObject: {fileID: 0}
  m_PrefabInstance: {fileID: 0}
  m_PrefabAsset: {fileID: 0}
  m_GameObject: {fileID: 0}
  m_Enabled: 1
  m_EditorHideFlags: 0
  m_Script: {fileID: 11500000, guid: e48d6eb4f3f583b449c378dc392fbdd0, type: 3}
  m_Name: Hat4
  m_EditorClassIdentifier: 
  icon: {fileID: 21300000, guid: 48c44870f14156741b99c7711651bdd9, type: 3}
  itemType: 0
  prefab: {fileID: 5365664807795619570, guid: c589c9a6eae9641418849227241d3612, type: 3}
